<?xml version="1.0" encoding="UTF-8" standalone="no"?>
<!-- Created with Inkscape (http://www.inkscape.org/) -->

<svg
   sodipodi:docname="coopmaths_with_people-ink.svg"
   inkscape:version="1.2.1 (9c6d41e410, 2022-07-14, custom)"
   id="svg14392"
   version="1.1"
   viewBox="0 0 100.37288 74.823608"
   height="282.79788"
   width="379.36206"
   xmlns:inkscape="http://www.inkscape.org/namespaces/inkscape"
   xmlns:sodipodi="http://sodipodi.sourceforge.net/DTD/sodipodi-0.dtd"
   xmlns="http://www.w3.org/2000/svg"
   xmlns:svg="http://www.w3.org/2000/svg"
   xmlns:rdf="http://www.w3.org/1999/02/22-rdf-syntax-ns#"
   xmlns:cc="http://creativecommons.org/ns#"
   xmlns:dc="http://purl.org/dc/elements/1.1/">
  <sodipodi:namedview
     id="namedview14394"
     pagecolor="#ffffff"
     bordercolor="#eeeeee"
     borderopacity="1"
     inkscape:showpageshadow="0"
     inkscape:pageopacity="0"
     inkscape:pagecheckerboard="false"
     inkscape:deskcolor="#eaeaea"
     inkscape:document-units="px"
     showgrid="true"
     inkscape:zoom="8"
     inkscape:cx="455.75"
     inkscape:cy="243.125"
     inkscape:window-width="1920"
     inkscape:window-height="1051"
     inkscape:window-x="1920"
     inkscape:window-y="0"
     inkscape:window-maximized="1"
     inkscape:current-layer="layer1">
    <inkscape:grid
       type="axonomgrid"
       id="grid15140"
       units="px"
       spacingy="1.3229167"
       color="#05e500"
       opacity="0.14901961"
       empspacing="10" />
  </sodipodi:namedview>
  <defs
     id="defs14389">
    <inkscape:path-effect
       effect="fillet_chamfer"
       id="path-effect23694"
       is_visible="true"
       lpeversion="1"
       nodesatellites_param="F,0,1,1,0,1.1917493,0,1 @ F,0,0,1,0,1.1917493,0,1 @ F,0,1,1,0,1.1917493,0,1 @ F,0,1,1,0,1.1917493,0,1"
       unit="px"
       method="auto"
       mode="F"
       radius="0"
       chamfer_steps="1"
       flexible="false"
       use_knot_distance="true"
       apply_no_radius="true"
       apply_with_radius="true"
       only_selected="false"
       hide_knots="false" />
    <inkscape:path-effect
       effect="fillet_chamfer"
       id="path-effect23692"
       is_visible="true"
       lpeversion="1"
       nodesatellites_param="F,0,1,1,0,1.2392934,0,1 @ F,0,0,1,0,1.2392934,0,1 @ F,0,1,1,0,1.2392934,0,1 @ F,0,1,1,0,1.2392934,0,1"
       unit="px"
       method="auto"
       mode="F"
       radius="0"
       chamfer_steps="1"
       flexible="false"
       use_knot_distance="true"
       apply_no_radius="true"
       apply_with_radius="true"
       only_selected="false"
       hide_knots="false" />
    <inkscape:path-effect
       effect="fillet_chamfer"
       id="path-effect17972"
       is_visible="true"
       lpeversion="1"
       nodesatellites_param="F,0,0,1,0,0,0,1 @ F,0,1,1,0,0.14452601,0,1 @ F,0,0,1,0,0.14452601,0,1 @ F,0,0,1,0,0,0,1"
       unit="px"
       method="auto"
       mode="F"
       radius="0"
       chamfer_steps="1"
       flexible="false"
       use_knot_distance="true"
       apply_no_radius="true"
       apply_with_radius="true"
       only_selected="false"
       hide_knots="false" />
    <inkscape:path-effect
       effect="fillet_chamfer"
       id="path-effect17763"
       is_visible="true"
       lpeversion="1"
       nodesatellites_param="F,0,0,1,0,0.36404743,0,1 @ F,0,0,1,0,0,0,1 @ F,0,0,1,0,0,0,1 @ F,0,1,1,0,0.36404743,0,1"
       unit="px"
       method="auto"
       mode="F"
       radius="0"
       chamfer_steps="1"
       flexible="false"
       use_knot_distance="true"
       apply_no_radius="true"
       apply_with_radius="true"
       only_selected="false"
       hide_knots="false" />
    <inkscape:path-effect
       effect="fillet_chamfer"
       id="path-effect17140"
       is_visible="true"
       lpeversion="1"
       nodesatellites_param="F,0,1,1,0,0.34857365,0,1 @ F,0,0,1,0,0,0,1 @ F,0,0,1,0,0,0,1 @ F,0,0,1,0,0.34857365,0,1"
       unit="px"
       method="auto"
       mode="F"
       radius="0"
       chamfer_steps="1"
       flexible="false"
       use_knot_distance="true"
       apply_no_radius="true"
       apply_with_radius="true"
       only_selected="false"
       hide_knots="false" />
    <inkscape:path-effect
       effect="fillet_chamfer"
       id="path-effect17134"
       is_visible="true"
       lpeversion="1"
       nodesatellites_param="F,0,1,1,0,0.34857365,0,1 @ F,0,0,1,0,0,0,1 @ F,0,0,1,0,0,0,1 @ F,0,0,1,0,0.34857365,0,1"
       unit="px"
       method="auto"
       mode="F"
       radius="0"
       chamfer_steps="1"
       flexible="false"
       use_knot_distance="true"
       apply_no_radius="true"
       apply_with_radius="true"
       only_selected="false"
       hide_knots="false" />
    <inkscape:path-effect
       effect="fillet_chamfer"
       id="path-effect3051"
       is_visible="true"
       lpeversion="1"
       nodesatellites_param="F,0,1,1,0,11.456796,0,1 @ F,0,1,1,0,11.456796,0,1 @ F,0,1,1,0,11.456796,0,1 @ F,0,0,1,0,11.456796,0,1"
       unit="px"
       method="auto"
       mode="F"
       radius="0"
       chamfer_steps="1"
       flexible="false"
       use_knot_distance="true"
       apply_no_radius="true"
       apply_with_radius="true"
       only_selected="false"
       hide_knots="false" />
    <inkscape:path-effect
       effect="fillet_chamfer"
       id="path-effect3063"
       is_visible="true"
       lpeversion="1"
       nodesatellites_param="F,0,1,1,0,11.456796,0,1 @ F,0,1,1,0,11.456796,0,1 @ F,0,1,1,0,11.456796,0,1 @ F,0,0,1,0,11.456796,0,1"
       unit="px"
       method="auto"
       mode="F"
       radius="0"
       chamfer_steps="1"
       flexible="false"
       use_knot_distance="true"
       apply_no_radius="true"
       apply_with_radius="true"
       only_selected="false"
       hide_knots="false" />
    <inkscape:path-effect
       effect="fillet_chamfer"
       id="path-effect3051-3"
       is_visible="true"
       lpeversion="1"
       nodesatellites_param="F,0,1,1,0,11.456796,0,1 @ F,0,1,1,0,11.456796,0,1 @ F,0,1,1,0,11.456796,0,1 @ F,0,0,1,0,11.456796,0,1"
       unit="px"
       method="auto"
       mode="F"
       radius="0"
       chamfer_steps="1"
       flexible="false"
       use_knot_distance="true"
       apply_no_radius="true"
       apply_with_radius="true"
       only_selected="false"
       hide_knots="false" />
    <inkscape:path-effect
       effect="fillet_chamfer"
       id="path-effect3063-6"
       is_visible="true"
       lpeversion="1"
       nodesatellites_param="F,0,1,1,0,11.456796,0,1 @ F,0,1,1,0,11.456796,0,1 @ F,0,1,1,0,11.456796,0,1 @ F,0,0,1,0,11.456796,0,1"
       unit="px"
       method="auto"
       mode="F"
       radius="0"
       chamfer_steps="1"
       flexible="false"
       use_knot_distance="true"
       apply_no_radius="true"
       apply_with_radius="true"
       only_selected="false"
       hide_knots="false" />
    <inkscape:path-effect
       effect="fillet_chamfer"
       id="path-effect11622"
       is_visible="true"
       lpeversion="1"
       nodesatellites_param="F,0,1,1,0,11.456796,0,1 @ F,0,1,1,0,11.456796,0,1 @ F,0,1,1,0,11.456796,0,1 @ F,0,0,1,0,11.456796,0,1"
       unit="px"
       method="auto"
       mode="F"
       radius="0"
       chamfer_steps="1"
       flexible="false"
       use_knot_distance="true"
       apply_no_radius="true"
       apply_with_radius="true"
       only_selected="false"
       hide_knots="false" />
    <inkscape:path-effect
       effect="fillet_chamfer"
       id="path-effect11626"
       is_visible="true"
       lpeversion="1"
       nodesatellites_param="F,0,1,1,0,11.456796,0,1 @ F,0,1,1,0,11.456796,0,1 @ F,0,1,1,0,11.456796,0,1 @ F,0,0,1,0,11.456796,0,1"
       unit="px"
       method="auto"
       mode="F"
       radius="0"
       chamfer_steps="1"
       flexible="false"
       use_knot_distance="true"
       apply_no_radius="true"
       apply_with_radius="true"
       only_selected="false"
       hide_knots="false" />
  </defs>
  <g
     inkscape:label="Calque 1"
     inkscape:groupmode="layer"
     id="layer1"
     style="display:inline"
     transform="translate(-22.940109,-42.566357)">
    <path
       id="path23817"
       style="fill:#fde3db;stroke:#0a3097;stroke-width:0"
       d="m 122.24287,65.290776 a 3.6535892,2.1094007 2.63e-4 0 1 2e-5,2.983141 3.6535892,2.1094007 2.63e-4 0 1 -5.16696,-4e-6 3.6535892,2.1094007 2.63e-4 0 1 -2e-5,-2.983144 3.6535892,2.1094007 2.63e-4 0 1 5.16696,7e-6 z" />
    <path
       d="m 56.282111,95.306769 -0.763786,0.44098 0.881945,0.50919 -6.110291,3.52778 -0.881945,-0.5092 -0.763787,0.44098 -7.055556,-4.07353 0.763787,-0.44097 -0.881944,-0.50919 6.110291,-3.52778 0.881944,0.50919 0.763786,-0.44097 z m -3.93709,1.2547 -5.291667,-3.05514 -1.527572,0.88194 5.291667,3.05515 z"
       style="font-size:10.5833px;line-height:1.25;font-family:'8BIT WONDER';-inkscape-font-specification:'8BIT WONDER, Normal';fill:#f15929;fill-opacity:1;stroke-width:0.264583"
       id="path496" />
    <path
       d="m 61.919769,92.111319 -0.763783,0.44097 0.881945,0.5092 -3.818935,2.20486 3.527778,2.03676 -3.055146,1.76389 -8.819445,-5.09191 6.874081,-3.96875 0.881944,0.50919 0.763783,-0.44097 z m -3.937091,1.2547 -1.763889,-1.01838 -1.527571,0.88195 1.763889,1.01838 z"
       style="font-size:10.5833px;line-height:1.25;font-family:'8BIT WONDER';-inkscape-font-specification:'8BIT WONDER, Normal';fill:#f15929;fill-opacity:1;stroke-width:0.264583"
       id="path498" />
    <path
       d="m 80.077645,80.515589 -3.055147,1.76389 -7.055556,-4.07353 -1.527574,0.88195 7.055556,4.07352 -3.055138,1.76389 -7.055556,-4.07353 -1.527574,0.88195 7.055556,4.07352 -3.055147,1.76389 -8.819445,-5.09191 11.456798,-6.61458 0.881944,0.50919 0.763782,-0.44097 z"
       style="font-size:10.5833px;line-height:1.25;font-family:'8BIT WONDER';-inkscape-font-specification:'8BIT WONDER, Normal';fill:#f15929;fill-opacity:1;stroke-width:0.264583"
       id="path500" />
    <path
       d="m 89.243078,78.209059 -3.055139,1.76389 -3.527778,-2.03676 -1.527573,0.88194 3.527778,2.03676 -3.055147,1.76389 -7.937501,-4.58271 0.763782,-0.44097 -0.881944,-0.5092 6.110294,-3.527771 0.881944,0.50919 0.763783,-0.44097 z m -8.346806,-1.29126 -1.763889,-1.01837 -1.527573,0.88194 1.763889,1.01838 z"
       style="font-size:10.5833px;line-height:1.25;font-family:'8BIT WONDER';-inkscape-font-specification:'8BIT WONDER, Normal';fill:#f15929;fill-opacity:1;stroke-width:0.264583"
       id="path502" />
    <path
       d="m 91.352963,69.657613 -2.291356,1.322915 7.055555,4.073531 -3.055146,1.76389 -7.055556,-4.073531 -2.291356,1.322915 -1.763889,-1.018382 7.637859,-4.40972 z"
       style="font-size:10.5833px;line-height:1.25;font-family:'8BIT WONDER';-inkscape-font-specification:'8BIT WONDER, Normal';fill:#f15929;fill-opacity:1;stroke-width:0.264583"
       id="path504" />
    <path
       d="m 84.170573,115.09532 -3.055147,1.76389 -7.055556,-4.07353 -1.527574,0.88195 7.055556,4.07352 -3.055138,1.76389 -7.055556,-4.07353 -1.527574,0.88195 7.055556,4.07352 -3.055147,1.76389 -8.819445,-5.09191 11.456798,-6.61458 0.881944,0.50919 0.763782,-0.44097 z"
       style="font-size:10.5833px;line-height:1.25;font-family:'8BIT WONDER';-inkscape-font-specification:'8BIT WONDER, Normal';display:none;fill:#ff0000;fill-opacity:0.486541;stroke-width:0.264583"
       id="path500-4" />
    <path
       d="m 93.336006,109.80365 -3.055139,1.76389 -3.527778,-2.03676 -1.527573,0.88194 3.527778,2.03676 -3.055147,1.76389 -7.937501,-4.58271 0.763782,-0.44097 -0.881944,-0.5092 6.110294,-3.52778 0.881944,0.5092 0.763783,-0.44097 z m -8.346806,-1.29126 -1.763889,-1.01838 -1.527573,0.88195 1.763889,1.01838 z"
       style="font-size:10.5833px;line-height:1.25;font-family:'8BIT WONDER';-inkscape-font-specification:'8BIT WONDER, Normal';display:none;fill:#ff0000;fill-opacity:0.486541;stroke-width:0.264583"
       id="path502-7" />
    <path
       d="m 95.445891,100.43846 -2.291356,1.32291 7.055555,4.07353 -3.055146,1.76389 -7.055556,-4.07353 -2.291356,1.32292 -1.763889,-1.01839 7.637859,-4.409715 z"
       style="font-size:10.5833px;line-height:1.25;font-family:'8BIT WONDER';-inkscape-font-specification:'8BIT WONDER, Normal';display:none;fill:#ff0000;fill-opacity:0.486541;stroke-width:0.264583"
       id="path504-4" />
    <path
       d="m 111.66689,99.220314 -3.05515,1.763886 -3.52778,-2.03676 -1.52757,0.881945 3.52778,2.036765 -3.05515,1.76389 -8.819445,-5.09191 3.055147,-1.76389 3.527778,2.036763 1.52757,-0.881945 -3.527774,-2.036763 3.055144,-1.76389 z"
       style="font-size:10.5833px;line-height:1.25;font-family:'8BIT WONDER';-inkscape-font-specification:'8BIT WONDER, Normal';display:none;fill:#ff0000;fill-opacity:0.486541;stroke-width:0.264583"
       id="path506-4" />
    <path
       d="m 119.95037,93.419463 -0.76379,0.44097 0.88195,0.509191 -6.87408,3.96875 -1.76389,-1.018382 4.58272,-2.645835 -1.76388,-1.018382 -3.81894,2.204865 -0.88195,-0.509191 -0.76378,0.44097 -3.52778,-2.036764 0.76378,-0.44097 -0.88194,-0.50919 6.87408,-3.96875 1.76389,1.018382 -4.58272,2.64583 1.76389,1.018381 3.81893,-2.20486 0.88195,0.509191 0.76378,-0.44097 z"
       style="font-size:10.5833px;line-height:1.25;font-family:'8BIT WONDER';-inkscape-font-specification:'8BIT WONDER, Normal';display:none;fill:#ff0000;fill-opacity:0.486541;stroke-width:0.264583"
       id="path508-3" />
    <g
       id="g10117">
      <path
         d="m 38.633632,105.48062 -6.874077,3.96875 -0.881945,-0.50919 -0.763787,0.44097 -7.055556,-4.07353 0.763787,-0.44097 -0.881944,-0.50919 6.874077,-3.96875 1.763889,1.01838 -4.582718,2.64584 5.291667,3.05514 4.582718,-2.64583 z"
         style="font-size:10.5833px;line-height:1.25;font-family:'8BIT WONDER';-inkscape-font-specification:'8BIT WONDER, Normal';fill:#f15929;fill-opacity:1;stroke:none;stroke-width:0.264583;stroke-dasharray:none;stroke-opacity:1"
         id="path492" />
      <path
         style="fill:#b3b3b3;stroke:none;stroke-width:0.264583px;stroke-linecap:butt;stroke-linejoin:miter;stroke-opacity:1"
         d="m 23.058266,105.30762 0.195993,7.94059 7.055557,4.07353 -0.195993,-7.94059 z"
         id="path1232" />
      <path
         style="fill:#666666;stroke:none;stroke-width:0.264583px;stroke-linecap:butt;stroke-linejoin:miter;stroke-opacity:1"
         d="m 30.113823,109.38115 0.763786,-0.44097 0.195993,7.94059 -0.763786,0.44097 z"
         id="path1234" />
      <path
         style="fill:#999999;fill-opacity:1;stroke:none;stroke-width:0.264583px;stroke-linecap:butt;stroke-linejoin:miter;stroke-opacity:1"
         d="m 30.877609,108.94018 0.881946,0.50919 0.195993,7.94059 -0.881946,-0.50919 z"
         id="path1236" />
      <path
         style="fill:#666666;fill-opacity:1;stroke:none;stroke-width:0.264583px;stroke-linecap:butt;stroke-linejoin:miter;stroke-opacity:1"
         d="m 31.759555,109.44937 6.874076,-3.96875 0.195993,7.94059 -6.874076,3.96875 z"
         id="path1928" />
      <path
         style="fill:#666666;fill-opacity:1;stroke:none;stroke-width:0.264583px;stroke-linecap:butt;stroke-linejoin:miter;stroke-opacity:1"
         d="m 31.578075,101.40709 v 5.29167 l -4.582716,-2.64583 z"
         id="path2413" />
      <path
         style="fill:#999999;fill-opacity:1;stroke:none;stroke-width:0.264583px;stroke-linecap:butt;stroke-linejoin:miter;stroke-opacity:1"
         d="m 22.940109,104.35746 0.195993,7.94059 0.09596,0.0507 -0.173792,-7.04109 0.763789,-0.44097 z"
         id="path2553" />
    </g>
    <path
       style="fill:#b3b3b3;fill-opacity:1;stroke:none;stroke-width:0.264583px;stroke-linecap:butt;stroke-linejoin:miter;stroke-opacity:1"
       d="m 41.588691,95.642969 v 3.69987 l 5.527985,3.191591 v 0.88194 l 0.118158,0.0682 v 2.44215 l 1.405853,0.81167 0.0036,-7.021911 z"
       id="path8518" />
    <path
       style="fill:#999999;fill-opacity:1;stroke:none;stroke-width:0.264583px;stroke-linecap:butt;stroke-linejoin:miter;stroke-opacity:1"
       d="m 41.470534,94.692809 v 4.58182 l 0.118157,0.0682 v -3.69987 l 0.763786,-0.44097 z"
       id="path8658" />
    <path
       style="fill:#666666;fill-opacity:1;stroke:none;stroke-width:0.264583px;stroke-linecap:butt;stroke-linejoin:miter;stroke-opacity:1"
       d="m 47.053353,93.506329 v 1.76389 l -1.527572,-0.88195 z"
       id="path9368" />
    <path
       style="fill:#b3b3b3;fill-opacity:1;stroke:none;stroke-width:0.264583px;stroke-linecap:butt;stroke-linejoin:miter;stroke-opacity:1"
       d="m 47.053353,93.506329 5.291667,3.05514 -1.527572,0.88195 -3.764095,-2.1732 z"
       id="path9508" />
    <path
       style="fill:#666666;fill-opacity:1;stroke:none;stroke-width:0.264583px;stroke-linecap:butt;stroke-linejoin:miter;stroke-opacity:1"
       d="m 48.644288,99.716479 0.763746,-0.44096 -0.0036,7.021911 -0.763789,0.44096 z"
       id="path9786" />
    <path
       style="fill:#999999;fill-opacity:1;stroke:none;stroke-width:0.264583px;stroke-linecap:butt;stroke-linejoin:miter;stroke-opacity:1"
       d="m 49.408034,99.275519 0.881946,0.5092 -0.0036,7.021911 -0.881943,-0.5092 z"
       id="path10133" />
    <path
       style="fill:#666666;fill-opacity:1;stroke:none;stroke-width:0.264583px;stroke-linecap:butt;stroke-linejoin:miter;stroke-opacity:1"
       d="m 50.28998,99.784719 6.11029,-3.52778 -0.0036,7.021911 -6.11033,3.52778 z"
       id="path10204" />
    <path
       style="fill:#666666;fill-opacity:1;stroke:none;stroke-width:0.264583px;stroke-linecap:butt;stroke-linejoin:miter;stroke-opacity:1"
       d="m 56.28211,95.306769 v 0.88195 l -0.763786,-0.44097 z"
       id="path10275" />
    <path
       style="fill:#b3b3b3;fill-opacity:1;stroke:none;stroke-width:0.264583px;stroke-linecap:butt;stroke-linejoin:miter;stroke-opacity:1"
       d="m 58.691628,99.066999 -0.0036,2.888931 -2.287796,-1.34166 v -2.847331 z"
       id="path10484" />
    <path
       style="fill:#666666;fill-opacity:1;stroke:none;stroke-width:0.264583px;stroke-linecap:butt;stroke-linejoin:miter;stroke-opacity:1"
       d="m 58.691628,99.066999 3.055147,-1.76389 -0.0036,2.888931 -3.055186,1.76389 z"
       id="path10486" />
    <path
       style="fill:#666666;fill-opacity:1;stroke:none;stroke-width:0.264583px;stroke-linecap:butt;stroke-linejoin:miter;stroke-opacity:1"
       d="m 62.03793,93.061489 -0.0036,2.88893 -1.328491,0.767 -2.486885,-1.45107 z"
       id="path10563" />
    <path
       style="fill:#666666;fill-opacity:1;stroke:none;stroke-width:0.264583px;stroke-linecap:butt;stroke-linejoin:miter;stroke-opacity:1"
       d="m 61.91977,92.111319 v 0.88195 l -0.763783,-0.44098 z"
       id="path10979" />
    <path
       style="fill:#666666;fill-opacity:1;stroke:none;stroke-width:0.264583px;stroke-linecap:butt;stroke-linejoin:miter;stroke-opacity:1"
       d="m 56.21879,92.347639 v 1.76389 l -1.527572,-0.88194 z"
       id="path11257" />
    <path
       style="fill:#b3b3b3;fill-opacity:1;stroke:none;stroke-width:0.264583px;stroke-linecap:butt;stroke-linejoin:miter;stroke-opacity:1"
       d="m 56.21879,92.347639 1.763887,1.01838 -1.527569,0.88195 -0.236318,-0.13644 z"
       id="path11259" />
    <path
       style="fill:#b3b3b3;fill-opacity:1;stroke:none;stroke-width:0.264583px;stroke-linecap:butt;stroke-linejoin:miter;stroke-opacity:1"
       d="m 59.037621,82.479229 v 7.96808 l 2.882149,1.66401 v 0.88195 l 0.11816,0.0682 v 0.24515 l 5.815574,3.35762 0.0036,-9.09312 z"
       id="path11606" />
    <path
       style="fill:#666666;fill-opacity:1;stroke:none;stroke-width:0.264583px;stroke-linecap:butt;stroke-linejoin:miter;stroke-opacity:1"
       d="m 67.857105,87.571119 3.055107,-1.76387 -0.0035,9.09312 -3.055149,1.76389 z"
       id="path11677" />
    <path
       style="fill:#666666;fill-opacity:1;stroke:none;stroke-width:0.264583px;stroke-linecap:butt;stroke-linejoin:miter;stroke-opacity:1"
       d="m 72.439786,84.925309 -0.0036,9.09312 3.055139,-1.76389 0.0036,-9.09312 z"
       id="path11679" />
    <path
       style="fill:#666666;fill-opacity:1;stroke:none;stroke-width:0.264583px;stroke-linecap:butt;stroke-linejoin:miter;stroke-opacity:1"
       d="m 77.022499,82.279479 -0.0036,9.09312 3.055147,-1.76389 0.0036,-9.09312 z"
       id="path11888" />
    <path
       style="fill:#666666;fill-opacity:1;stroke:none;stroke-width:0.264583px;stroke-linecap:butt;stroke-linejoin:miter;stroke-opacity:1"
       d="m 81.60522,82.618779 -0.0036,6.10798 3.055147,-1.76389 0.0036,-6.10798 z"
       id="path11890" />
    <path
       style="fill:#666666;fill-opacity:1;stroke:none;stroke-width:0.264583px;stroke-linecap:butt;stroke-linejoin:miter;stroke-opacity:1"
       d="m 86.187939,79.972949 -0.0035,6.10798 3.055139,-1.76389 0.0035,-6.10798 z"
       id="path11892" />
    <path
       style="fill:#666666;fill-opacity:1;stroke:none;stroke-width:0.264583px;stroke-linecap:butt;stroke-linejoin:miter;stroke-opacity:1"
       d="m 65.38423,80.851779 v 1.76389 l -1.527575,-0.88194 z"
       id="path11963" />
    <path
       style="fill:#666666;fill-opacity:1;stroke:none;stroke-width:0.264583px;stroke-linecap:butt;stroke-linejoin:miter;stroke-opacity:1"
       d="m 69.966943,78.205949 v 1.76389 l -1.527575,-0.88194 z"
       id="path12034" />
    <path
       style="fill:#b3b3b3;fill-opacity:1;stroke:none;stroke-width:0.264583px;stroke-linecap:butt;stroke-linejoin:miter;stroke-opacity:1"
       d="m 65.38423,80.851779 v 1.76389 l 5.527982,3.19158 v 7.33129 l 1.523973,0.87989 0.0036,-9.09312 z"
       id="path12105" />
    <path
       style="fill:#b3b3b3;fill-opacity:1;stroke:none;stroke-width:0.264583px;stroke-linecap:butt;stroke-linejoin:miter;stroke-opacity:1"
       d="m 69.966943,78.205949 v 1.76389 l 5.527982,3.19158 v 7.33129 l 1.523973,0.87989 0.0036,-9.09312 z"
       id="path12176" />
    <path
       style="fill:#b3b3b3;fill-opacity:1;stroke:none;stroke-width:0.264583px;stroke-linecap:butt;stroke-linejoin:miter;stroke-opacity:1"
       d="m 81.60522,82.618779 -1.527574,-0.90089 v 6.12898 l 1.524013,0.87989 z"
       id="path12247" />
    <path
       style="fill:#b3b3b3;fill-opacity:1;stroke:none;stroke-width:0.264583px;stroke-linecap:butt;stroke-linejoin:miter;stroke-opacity:1"
       d="m 82.660162,77.936189 v 1.76388 l 2.000205,1.15482 v 4.34615 l 1.524071,0.87989 0.0035,-6.10798 z"
       id="path12249" />
    <path
       style="fill:#666666;fill-opacity:1;stroke:none;stroke-width:0.264583px;stroke-linecap:butt;stroke-linejoin:miter;stroke-opacity:1"
       d="m 82.660162,77.936189 -1.527575,0.88194 1.527575,0.88194 z"
       id="path12320" />
    <path
       style="fill:#666666;fill-opacity:1;stroke:none;stroke-width:0.264583px;stroke-linecap:butt;stroke-linejoin:miter;stroke-opacity:1"
       d="m 79.132382,75.899429 v 1.76388 l -1.527572,-0.88194 z"
       id="path12391" />
    <path
       style="fill:#b3b3b3;fill-opacity:1;stroke:none;stroke-width:0.264583px;stroke-linecap:butt;stroke-linejoin:miter;stroke-opacity:1"
       d="m 79.132382,75.899429 1.76389,1.01837 -1.527572,0.88195 -0.236318,-0.13644 z"
       id="path12600" />
    <path
       style="fill:#b3b3b3;fill-opacity:1;stroke:none;stroke-width:0.264583px;stroke-linecap:butt;stroke-linejoin:miter;stroke-opacity:1"
       d="m 86.006461,72.744417 v 3.595982 l 3.236616,1.86866 v 1.70031 l 3.815379,2.20281 0.0036,-5.29423 z"
       id="path12602" />
    <path
       style="fill:#666666;fill-opacity:1;stroke:none;stroke-width:0.264583px;stroke-linecap:butt;stroke-linejoin:miter;stroke-opacity:1"
       d="m 83.715103,74.067334 v 0.950155 l 1.996414,1.15263 0.294944,-0.17029 v -3.255412 z"
       id="path12742" />
    <path
       style="fill:#b3b3b3;fill-opacity:1;stroke:none;stroke-width:0.264583px;stroke-linecap:butt;stroke-linejoin:miter;stroke-opacity:1"
       d="m 81.951216,73.04895 v 0.950156 l 1.763887,1.018383 v -0.950155 z"
       id="path12813" />
    <path
       style="fill:#666666;fill-opacity:1;stroke:none;stroke-width:0.264583px;stroke-linecap:butt;stroke-linejoin:miter;stroke-opacity:1"
       d="m 93.062015,76.817949 3.055147,-1.76389 -0.004,5.29423 -3.055149,1.76389 z"
       id="path12953" />
    <path
       style="fill:#666666;fill-opacity:1;stroke:none;stroke-width:0.264583px;stroke-linecap:butt;stroke-linejoin:miter;stroke-opacity:1"
       d="m 91.352963,69.657614 v 2.64583 l -2.291356,-1.322916 z"
       id="path13446" />
    <g
       id="g9671">
      <path
         d="m 115.85744,59.992262 -0.76379,0.44097 0.88195,0.509191 -6.87408,3.96875 -1.76389,-1.018382 4.58272,-2.645835 -1.76388,-1.018382 -3.81894,2.204865 -0.88195,-0.509191 -0.76378,0.44097 -3.52778,-2.036764 0.76378,-0.44097 -0.88194,-0.50919 6.87408,-3.96875 1.76389,1.018382 -4.58272,2.64583 1.76389,1.018381 3.81893,-2.20486 0.88195,0.509191 0.76378,-0.44097 z"
         style="font-size:10.5833px;line-height:1.25;font-family:'8BIT WONDER';-inkscape-font-specification:'8BIT WONDER, Normal';fill:#f15929;fill-opacity:1;stroke-width:0.264583"
         id="path508" />
      <path
         style="fill:#666666;fill-opacity:1;stroke:none;stroke-width:0.264583px;stroke-linecap:butt;stroke-linejoin:miter;stroke-opacity:1"
         d="m 109.10152,64.911174 -0.004,7.94059 6.87408,-3.96875 0.004,-7.94059 z"
         id="path13306" />
      <path
         style="fill:#b3b3b3;fill-opacity:1;stroke:none;stroke-width:0.264583px;stroke-linecap:butt;stroke-linejoin:miter;stroke-opacity:1"
         d="m 107.33763,63.89279 v 4.623189 l 0.23633,0.136443 v 3.31946 l 1.52356,0.879882 0.004,-7.94059 z"
         id="path13870" />
      <path
         style="fill:#b3b3b3;fill-opacity:1;stroke:none;stroke-width:0.264583px;stroke-linecap:butt;stroke-linejoin:miter;stroke-opacity:1"
         d="m 110.15647,60.228575 v 2.036757 l 1.76388,-1.018376 z"
         id="path14079" />
      <path
         style="fill:#666666;fill-opacity:1;stroke:none;stroke-width:0.264583px;stroke-linecap:butt;stroke-linejoin:miter;stroke-opacity:1"
         d="m 106.33753,62.433438 v 5.505133 l 1.0001,0.577408 V 63.89279 l 2.81884,-1.627458 v -2.036757 z"
         id="path14219" />
      <path
         style="fill:#999999;fill-opacity:1;stroke:none;stroke-width:0.264583px;stroke-linecap:butt;stroke-linejoin:miter;stroke-opacity:1"
         d="m 105.45558,61.924247 v 5.50513 l 0.88195,0.509194 v -5.505133 z"
         id="path14221" />
      <path
         style="fill:#666666;fill-opacity:1;stroke:none;stroke-width:0.264583px;stroke-linecap:butt;stroke-linejoin:miter;stroke-opacity:1"
         d="m 104.6918,62.365218 v 4.623189 l 0.76378,0.44097 v -5.50513 z"
         id="path14576" />
      <path
         style="fill:#b3b3b3;fill-opacity:1;stroke:none;stroke-width:0.264583px;stroke-linecap:butt;stroke-linejoin:miter;stroke-opacity:1"
         d="m 101.16402,60.328453 v 4.623191 l 3.52778,2.036763 v -4.623189 z"
         id="path14647" />
      <path
         style="fill:#999999;fill-opacity:1;stroke:none;stroke-width:0.264583px;stroke-linecap:butt;stroke-linejoin:miter;stroke-opacity:1"
         d="m 101.04586,59.378294 v 5.50513 l 0.11816,0.06822 v -4.623191 l 0.76378,-0.440968 z"
         id="path14787" />
      <path
         style="fill:#666666;fill-opacity:1;stroke:none;stroke-width:0.264583px;stroke-linecap:butt;stroke-linejoin:miter;stroke-opacity:1"
         d="m 109.68383,56.427925 v 2.03676 l -2.81883,1.627452 -1.76389,-1.018381 z"
         id="path14860" />
      <path
         style="fill:#666666;fill-opacity:1;stroke:none;stroke-width:0.264583px;stroke-linecap:butt;stroke-linejoin:miter;stroke-opacity:1"
         d="m 115.85744,59.992263 v 0.88194 l -0.76379,-0.44097 z"
         id="path15088" />
    </g>
    <path
       style="fill:#b3b3b3;fill-opacity:1;stroke:none;stroke-width:0.165257px;stroke-linecap:butt;stroke-linejoin:miter;stroke-opacity:1"
       d="m 43.492605,91.606603 v 1.652577 l 1.43117,0.826287 v -1.652576 z"
       id="path8773" />
    <path
       style="fill:none;stroke:#999999;stroke-width:1.38198;stroke-linecap:round;stroke-linejoin:miter;stroke-dasharray:none;stroke-opacity:1"
       d="m 40.271898,92.468607 v 9.673863 0 0"
       id="path3968" />
    <path
       style="fill:none;stroke:#999999;stroke-width:1.38198;stroke-linecap:round;stroke-linejoin:miter;stroke-dasharray:none;stroke-opacity:1"
       d="m 37.878237,93.850588 v 9.673862 0 0"
       id="path3966" />
    <g
       id="g3964"
       transform="matrix(0.07574362,0,0,0.07574362,21.789068,77.889198)">
      <path
         id="rect3638"
         style="fill:#999999;stroke-width:1.96979;stroke-linejoin:round"
         d="m 227.38056,190.93658 19.84374,-11.45679 a 16.202397,28.063375 29.999738 0 1 19.84375,11.45692 v 7.08952 a 16.202397,28.063375 29.999738 0 1 -19.84375,34.37051 l -19.84374,11.45679 a 16.202397,28.063375 29.999738 0 1 -19.84375,-11.45692 v -7.08952 a 16.202397,28.063375 29.999738 0 1 19.84375,-34.37051 z" />
      <path
         id="path3747"
         style="fill:#999999;stroke-width:1.96979;stroke-linejoin:round"
         d="m 211.31901,183.91075 19.84374,-11.45679 a 16.202397,28.063375 29.999738 0 1 19.84375,11.45692 v 7.08952 a 16.202397,28.063375 29.999738 0 1 -19.84375,34.37051 l -19.84374,11.45679 a 16.202397,28.063375 29.999738 0 1 -19.84375,-11.45692 v -7.08952 a 16.202397,28.063375 29.999738 0 1 19.84375,-34.37051 z" />
      <path
         style="fill:#999999;fill-opacity:1;stroke:none;stroke-width:0.264583px;stroke-linecap:butt;stroke-linejoin:miter;stroke-opacity:1"
         d="m 244.67975,170.78795 15.63827,6.8284 -10.0886,0.39271 z"
         id="path3749" />
      <path
         style="fill:#999999;fill-opacity:1;stroke:none;stroke-width:0.264583px;stroke-linecap:butt;stroke-linejoin:miter;stroke-opacity:1"
         d="m 196.91875,237.9933 17.3499,7.7157 -5.95442,-7.41039 z"
         id="path3958"
         sodipodi:nodetypes="cccc" />
    </g>
    <g
       id="g3550"
       transform="matrix(0.10446467,0,0,0.10446467,15.142023,72.565987)"
       style="fill:#2995f1;fill-opacity:1">
      <path
         id="rect2996"
         style="fill:#2995f1;fill-opacity:1;stroke-width:1.45927;stroke-linejoin:round"
         d="m 233.73557,122.21876 9.55765,-5.51812 a 7.299232,7.299232 27.498395 0 1 10.92104,5.68474 l 5.35204,61.13473 a 17.982457,17.982457 117.4984 0 1 -8.92272,17.14154 l -24.25837,14.00557 a 6.0218559,6.0218559 32.272948 0 1 -9.01384,-5.69235 l 5.53428,-69.60696 a 21.796972,21.796972 122.27294 0 1 10.82992,-17.14915 z"
         sodipodi:nodetypes="ccccc"
         inkscape:path-effect="#path-effect3051"
         inkscape:original-d="m 223.81369,127.94716 29.40141,-16.97492 7.35036,83.96101 -44.10213,25.46237 z" />
      <path
         id="path3059"
         style="fill:#2995f1;fill-opacity:1;stroke-width:1.45927;stroke-linejoin:round"
         d="m 216.52911,120.02654 9.55765,-5.51812 a 7.299232,7.299232 27.498395 0 1 10.92104,5.68474 l 5.35204,61.13473 a 17.982457,17.982457 117.4984 0 1 -8.92272,17.14154 L 209.17875,212.475 a 6.0218559,6.0218559 32.272948 0 1 -9.01384,-5.69235 l 5.53428,-69.60696 a 21.796972,21.796972 122.27294 0 1 10.82992,-17.14915 z"
         sodipodi:nodetypes="ccccc"
         inkscape:path-effect="#path-effect3063"
         inkscape:original-d="m 206.60723,125.75494 29.40141,-16.97492 7.35036,83.96101 -44.10213,25.46237 z" />
      <path
         style="fill:#2995f1;fill-opacity:1;stroke:none;stroke-width:0.264583px;stroke-linecap:butt;stroke-linejoin:miter;stroke-opacity:1"
         d="m 230.65902,113.58905 17.1415,2.18424 -10.78136,4.54968 z"
         id="path3128"
         sodipodi:nodetypes="cccc" />
      <path
         style="fill:#2995f1;fill-opacity:1;stroke:none;stroke-width:0.264583px;stroke-linecap:butt;stroke-linejoin:miter;stroke-opacity:1"
         d="m 204.7883,213.12163 17.81401,2.30268 -5.12845,-7.73849 z"
         id="path3406" />
    </g>
    <circle
       style="fill:#2d2a45;fill-opacity:1;stroke:none;stroke-width:0.221117;stroke-linejoin:round"
       id="path1104"
       cx="38.402229"
       cy="81.818726"
       r="1.9733499" />
    <path
       style="fill:none;fill-opacity:1;stroke:#c27770;stroke-width:1.05031;stroke-linecap:round;stroke-linejoin:miter;stroke-dasharray:none;stroke-opacity:1"
       d="m 41.722155,86.588361 c 0,0 1.58769,2.038962 2.54215,2.824571 0.95447,0.785609 2.87125,1.341445 2.87125,1.341445 v 0 0"
       id="path4428" />
    <path
       id="path4148"
       style="fill:#2995f1;fill-opacity:1;stroke-width:1.63716;stroke-linecap:round;stroke-linejoin:round"
       d="m 40.141028,84.834955 a 1.188232,1.188232 0 0 1 1.675339,0.130487 l 0.991008,1.134713 a 1.2003242,1.2003242 0 0 1 -0.1145,1.693649 1.188232,1.188232 0 0 1 -1.675335,-0.130486 l -0.991009,-1.134713 a 1.2003242,1.2003242 0 0 1 0.114497,-1.69365 z" />
    <path
       id="path4356"
       style="fill:#c27770;stroke-width:1.18398;stroke-linecap:round;stroke-linejoin:round"
       d="m 40.067112,85.882321 c -0.192873,0.248815 -0.631754,0.315947 -1.122476,-0.0058 -0.490721,-0.321766 -0.592765,-0.66823 -0.399891,-0.917045 0.192873,-0.248815 0.736783,-0.228366 1.227504,0.0934 0.490722,0.321766 0.487737,0.580649 0.294863,0.829464 z"
       sodipodi:nodetypes="sssss" />
    <path
       id="rect1907"
       style="fill:#a55959;fill-opacity:1;stroke-width:0.221117;stroke-linejoin:round"
       d="m 39.230628,83.055607 a 0.52954845,0.52954845 0 0 1 0.513562,0.545065 v 1.42845 a 0.54506581,0.54506581 0 0 1 -0.545065,0.545066 0.52954845,0.52954845 0 0 1 -0.513563,-0.545066 v -1.42845 a 0.54506581,0.54506581 0 0 1 0.545066,-0.545065 z" />
    <path
       id="path238"
       style="fill:#c27770;stroke-width:0.221117;stroke-linejoin:round"
       d="m 41.189734,82.402015 c 0,1.065224 0.0035,2.191839 -1.061748,2.191839 -1.065224,0 -2.795769,-1.126615 -2.795769,-2.191839 0,-1.065224 0.863534,-1.928758 1.928758,-1.928758 1.065224,0 1.928759,0.863534 1.928759,1.928758 z"
       sodipodi:nodetypes="sssss" />
    <path
       id="rect1843"
       style="fill:#2d2a45;stroke-width:0.259033;stroke-linejoin:round"
       d="m 37.759364,79.676057 2.416704,-0.409464 a 0.84354438,0.84354438 0 0 1 0.972605,0.690775 0.83322015,0.83322015 0 0 1 -0.694247,0.952121 l -2.416704,0.409464 a 0.84354438,0.84354438 0 0 1 -0.972606,-0.690776 0.83322015,0.83322015 0 0 1 0.694248,-0.95212 z" />
    <path
       id="path1897"
       style="fill:#2d2a45;stroke-width:0.259033;stroke-linejoin:round"
       d="m 37.307799,80.473975 2.416704,-0.409465 a 0.84354438,0.84354438 0 0 1 0.972604,0.690776 0.83322015,0.83322015 0 0 1 -0.694247,0.95212 l -2.416703,0.409465 a 0.84354438,0.84354438 0 0 1 -0.972606,-0.690777 0.83322015,0.83322015 0 0 1 0.694248,-0.952119 z" />
    <g
       id="g1905"
       transform="matrix(0.10446467,0,0,0.10446467,25.409227,68.355179)">
      <path
         id="path1899"
         style="fill:#2d2a45;stroke-width:0.628076;stroke-linejoin:round"
         d="m 106.01039,114.42466 5.85978,-0.99282 a 2.0453408,2.0453408 0 0 1 2.35827,1.67492 2.0203077,2.0203077 0 0 1 -1.68334,2.3086 l -5.85978,0.99283 a 2.0453408,2.0453408 0 0 1 -2.35827,-1.67492 2.0203077,2.0203077 0 0 1 1.68334,-2.30861 z" />
      <path
         id="path1901"
         style="fill:#2d2a45;stroke-width:0.628076;stroke-linejoin:round"
         d="m 109.2513,109.24136 4.3287,4.07247 a 2.0453408,2.0453408 0 0 1 0.0882,2.8912 2.0203077,2.0203077 0 0 1 -2.85667,0.0515 l -4.32871,-4.07248 a 2.0453408,2.0453408 0 0 1 -0.0882,-2.8912 2.0203077,2.0203077 0 0 1 2.85669,-0.0515 z" />
    </g>
    <path
       id="rect2690"
       style="fill:#c27770;stroke-width:0.221117;stroke-linejoin:round"
       d="m 37.397605,81.622516 a 0.36843485,0.36843485 0 0 1 0.348488,0.387355 v 0.538036 a 0.3873556,0.3873556 0 0 1 -0.387355,0.387356 0.36843485,0.36843485 0 0 1 -0.348489,-0.387356 v -0.538036 a 0.3873556,0.3873556 0 0 1 0.387356,-0.387355 z" />
    <path
       style="fill:none;fill-opacity:1;stroke:#c27770;stroke-width:1.05031;stroke-linecap:round;stroke-linejoin:miter;stroke-dasharray:none;stroke-opacity:1"
       d="m 37.899979,88.442603 c 0,0 1.587687,2.038962 2.542155,2.824571 0.954469,0.785609 2.871241,1.341444 2.871241,1.341444 v 0 0"
       id="path4430" />
    <path
       id="rect4143"
       style="fill:#2995f1;fill-opacity:1;stroke-width:1.63716;stroke-linecap:round;stroke-linejoin:round"
       d="m 36.977402,85.579052 a 1.188232,1.188232 0 0 1 1.460096,0.83181 l 0.413141,1.448788 a 1.2003242,1.2003242 0 0 1 -0.825143,1.483474 1.188232,1.188232 0 0 1 -1.460097,-0.83181 l -0.41314,-1.448788 a 1.2003242,1.2003242 0 0 1 0.825143,-1.483474 z" />
    <path
       style="fill:#f15929;fill-opacity:1;stroke:none;stroke-width:0.165257px;stroke-linecap:butt;stroke-linejoin:miter;stroke-opacity:1"
       d="m 43.492605,91.606603 2.86235,-1.652576 1.43117,0.826288 -2.86235,1.652576 z"
       id="path9051" />
    <path
       style="fill:#666666;fill-opacity:1;stroke:none;stroke-width:0.165257px;stroke-linecap:butt;stroke-linejoin:miter;stroke-opacity:1"
       d="m 44.923775,92.432891 2.86235,-1.652576 v 1.652576 l -2.86235,1.652576 z"
       id="path9467" />
    <g
       id="g9680">
      <path
         d="m 107.57396,68.652423 -3.05515,1.76389 -3.52778,-2.036764 -1.527568,0.881945 3.527778,2.036764 -3.055148,1.76389 -8.819445,-5.091909 3.055147,-1.76389 3.527778,2.036763 1.52757,-0.881945 -3.527774,-2.036763 3.055144,-1.76389 z"
         style="font-size:10.5833px;line-height:1.25;font-family:'8BIT WONDER';-inkscape-font-specification:'8BIT WONDER, Normal';fill:#f15929;fill-opacity:1;stroke-width:0.264583"
         id="path506" />
      <path
         style="fill:#666666;fill-opacity:1;stroke:none;stroke-width:0.264583px;stroke-linecap:butt;stroke-linejoin:miter;stroke-opacity:1"
         d="m 99.936092,73.062148 -0.004,5.081281 3.055148,-1.76389 0.004,-5.081281 z"
         id="path12955" />
      <path
         style="fill:#666666;fill-opacity:1;stroke:none;stroke-width:0.264583px;stroke-linecap:butt;stroke-linejoin:miter;stroke-opacity:1"
         d="m 104.51881,70.416313 -0.004,5.081276 3.05515,-1.763886 0.004,-5.081281 z"
         id="path13026"
         sodipodi:nodetypes="ccccc" />
      <path
         style="fill:#b3b3b3;fill-opacity:1;stroke:none;stroke-width:0.264583px;stroke-linecap:butt;stroke-linejoin:miter;stroke-opacity:1"
         d="m 91.116647,67.970239 v 1.550937 l 0.236316,0.236315 v 2.545953 l 4.764199,2.792125 v 0.84505 l 3.81493,2.20256 0.004,-5.081031 z"
         id="path13517" />
      <path
         style="fill:#b3b3b3;fill-opacity:1;stroke:none;stroke-width:0.264583px;stroke-linecap:butt;stroke-linejoin:miter;stroke-opacity:1"
         d="m 95.699368,65.324405 v 1.76389 l 2.000204,1.154816 1.52757,-0.881943 z"
         id="path13588" />
      <path
         style="fill:#666666;fill-opacity:1;stroke:none;stroke-width:0.264583px;stroke-linecap:butt;stroke-linejoin:miter;stroke-opacity:1"
         d="m 100.99103,68.379549 v 1.763887 l -1.527568,-0.881943 z"
         id="path13797" />
      <path
         style="fill:#b3b3b3;fill-opacity:1;stroke:none;stroke-width:0.264583px;stroke-linecap:butt;stroke-linejoin:miter;stroke-opacity:1"
         d="m 100.99103,68.379549 v 1.763887 l 2.00021,1.154822 v 3.319451 l 1.52357,0.87988 0.004,-5.081275 z"
         id="path13868" />
    </g>
    <g
       id="g16226"
       transform="translate(-2.2929675,-0.98276884)">
      <path
         id="path9795"
         style="fill:#fde3db;fill-opacity:1;stroke-width:9.35651;stroke-linecap:round;stroke-linejoin:round"
         d="m 73.55525,65.379786 a 4.340339,2.5058959 2.63e-4 0 1 1.6e-5,3.543872 4.340339,2.5058959 2.63e-4 0 1 -6.138167,-9e-6 4.340339,2.5058959 2.63e-4 0 1 -1.7e-5,-3.543872 4.340339,2.5058959 2.63e-4 0 1 6.138168,9e-6 z" />
      <ellipse
         style="fill:#2d2a45;fill-opacity:1;stroke:none;stroke-width:0.555056;stroke-linecap:round;stroke-linejoin:round;stroke-dasharray:none;stroke-opacity:1"
         id="path8289"
         cx="69.300034"
         cy="45.971909"
         rx="2.4668152"
         ry="2.422785" />
      <path
         style="fill:none;stroke:#c07770;stroke-width:1.26801;stroke-linecap:round;stroke-linejoin:miter;stroke-dasharray:none;stroke-opacity:1"
         d="m 71.535371,57.350654 v 8.876049 0 0"
         id="path3968-7" />
      <path
         style="fill:none;stroke:#c07770;stroke-width:1.26801;stroke-linecap:round;stroke-linejoin:miter;stroke-dasharray:none;stroke-opacity:1"
         d="m 69.339118,58.618661 v 8.876049 0 0"
         id="path3966-5" />
      <g
         id="g3964-3"
         transform="matrix(0.06949696,0,0,0.11725342,54.509645,35.6348)">
        <path
           id="rect3638-5"
           style="fill:#999999;stroke-width:1.96979;stroke-linejoin:round"
           d="m 223.82267,198.44665 21.11137,-16.26325 c 13.63348,-10.50262 23.85488,-1.19705 21.66998,18.37697 l -1.06727,9.56145 c -1.67963,15.04746 -11.03498,30.09302 -21.02877,34.65379 l -13.44308,6.13489 c -7.70521,3.51635 -17.20292,1.0386 -19.10098,-9.02312 l -1.17394,-6.22314 c -2.32905,-12.34646 2.97868,-29.47243 13.03269,-37.21759 z"
           sodipodi:nodetypes="sssssssss" />
        <path
           id="path3747-6"
           style="fill:#999999;stroke-width:1.96979;stroke-linejoin:round"
           d="m 205.67171,187.61623 19.93162,-17.99815 c 12.94235,-11.68688 24.13983,-1.62682 23.57521,19.75935 l -0.27451,10.39763 c -0.43029,16.29869 -8.92274,32.35696 -18.25452,37.60111 l -15.03677,8.45016 c -7.4249,4.17254 -15.09071,-0.45111 -17.91462,-11.19587 l -1.75083,-6.66174 c -3.48321,-13.25336 0.27871,-31.82305 9.72442,-40.35249 z" />
        <path
           style="fill:#999999;fill-opacity:1;stroke:none;stroke-width:0.264583px;stroke-linecap:butt;stroke-linejoin:miter;stroke-opacity:1"
           d="m 241.87748,166.95259 18.77643,12.64007 -12.14801,0.27494 z"
           id="path3749-2" />
        <path
           style="fill:#999999;fill-opacity:1;stroke:none;stroke-width:0.264583px;stroke-linecap:butt;stroke-linejoin:miter;stroke-opacity:1"
           d="m 204.65931,245.73395 16.34051,6.46563 -5.35178,-6.7846 z"
           id="path3958-9"
           sodipodi:nodetypes="cccc" />
      </g>
      <g
         id="g3550-1"
         transform="matrix(0.09584935,0,0,0.09584935,48.477985,39.089425)"
         style="fill:#f129c2;fill-opacity:1">
        <path
           id="rect2996-2"
           style="fill:#f129c2;fill-opacity:1;stroke-width:1.45927;stroke-linejoin:round"
           d="m 233.73557,122.21876 9.55765,-5.51812 a 7.299232,7.299232 27.498395 0 1 10.92104,5.68474 l 5.35204,61.13473 a 17.982457,17.982457 117.4984 0 1 -8.92272,17.14154 l -24.25837,14.00557 a 6.0218559,6.0218559 32.272948 0 1 -9.01384,-5.69235 l 5.53428,-69.60696 a 21.796972,21.796972 122.27294 0 1 10.82992,-17.14915 z"
           sodipodi:nodetypes="ccccc"
           inkscape:path-effect="#path-effect3051-3"
           inkscape:original-d="m 223.81369,127.94716 29.40141,-16.97492 7.35036,83.96101 -44.10213,25.46237 z" />
        <path
           id="path3059-7"
           style="fill:#f129c2;fill-opacity:1;stroke-width:1.45927;stroke-linejoin:round"
           d="m 216.52911,120.02654 9.55765,-5.51812 a 7.299232,7.299232 27.498395 0 1 10.92104,5.68474 l 5.35204,61.13473 a 17.982457,17.982457 117.4984 0 1 -8.92272,17.14154 L 209.17875,212.475 a 6.0218559,6.0218559 32.272948 0 1 -9.01384,-5.69235 l 5.53428,-69.60696 a 21.796972,21.796972 122.27294 0 1 10.82992,-17.14915 z"
           sodipodi:nodetypes="ccccc"
           inkscape:path-effect="#path-effect3063-6"
           inkscape:original-d="m 206.60723,125.75494 29.40141,-16.97492 7.35036,83.96101 -44.10213,25.46237 z" />
        <path
           style="fill:#f129c2;fill-opacity:1;stroke:none;stroke-width:0.264583px;stroke-linecap:butt;stroke-linejoin:miter;stroke-opacity:1"
           d="m 230.65902,113.58905 17.1415,2.18424 -10.78136,4.54968 z"
           id="path3128-0"
           sodipodi:nodetypes="cccc" />
        <path
           style="fill:#f129c2;fill-opacity:1;stroke:none;stroke-width:0.264583px;stroke-linecap:butt;stroke-linejoin:miter;stroke-opacity:1"
           d="m 204.7883,213.12163 17.81401,2.30268 -5.12845,-7.73849 z"
           id="path3406-9" />
      </g>
      <circle
         style="fill:#2d2a45;fill-opacity:1;stroke:none;stroke-width:0.202881;stroke-linejoin:round"
         id="path1104-3"
         cx="69.819893"
         cy="47.579079"
         r="1.8106055" />
      <path
         style="fill:none;fill-opacity:1;stroke:#c27770;stroke-width:0.963689;stroke-linecap:round;stroke-linejoin:miter;stroke-dasharray:none;stroke-opacity:1"
         d="m 72.786273,51.949833 c 0,0 0.770235,2.242493 1.364431,3.208647 0.594195,0.966154 2.091944,2.019652 2.091944,2.019652 v 0 0"
         id="path4428-6"
         inkscape:transform-center-x="-1.6717621"
         inkscape:transform-center-y="2.8503023" />
      <path
         id="path4148-0"
         style="fill:#f129c2;fill-opacity:1;stroke-width:1.28688;stroke-linecap:round;stroke-linejoin:round"
         d="m 71.618382,50.392678 a 0.90182263,0.96734202 7.4849828 0 1 1.246845,0.270961 l 0.625393,1.013879 a 0.91100016,0.97718623 7.4849828 0 1 -0.265771,1.355734 0.90182263,0.96734202 7.4849828 0 1 -1.246847,-0.27096 l -0.625391,-1.013879 a 0.91100016,0.97718623 7.4849828 0 1 0.265771,-1.355735 z"
         inkscape:transform-center-x="-0.39183179"
         inkscape:transform-center-y="1.1170238" />
      <path
         id="path4356-6"
         style="fill:#c27770;stroke-width:1.08634;stroke-linecap:round;stroke-linejoin:round"
         d="m 71.347474,51.307546 c -0.176966,0.228295 -0.579652,0.289891 -1.029904,-0.0053 -0.450251,-0.295229 -0.543879,-0.61312 -0.366912,-0.841415 0.176967,-0.228295 0.67602,-0.209532 1.126271,0.0857 0.450251,0.29523 0.447513,0.532762 0.270545,0.761057 z"
         sodipodi:nodetypes="sssss" />
      <path
         id="rect1907-2"
         style="fill:#a55959;fill-opacity:1;stroke-width:0.202881;stroke-linejoin:round"
         d="m 70.579976,48.713954 a 0.48587599,0.48587599 0 0 1 0.471208,0.500113 v 1.310644 a 0.50011361,0.50011361 0 0 1 -0.500113,0.500115 0.48587599,0.48587599 0 0 1 -0.471209,-0.500115 v -1.310644 a 0.50011361,0.50011361 0 0 1 0.500114,-0.500113 z" />
      <path
         id="path238-6"
         style="fill:#c27770;stroke-width:0.202881;stroke-linejoin:round"
         d="m 72.377512,48.114265 c 0,0.977374 0.0032,2.011076 -0.974184,2.011076 -0.977374,0 -2.565199,-1.033702 -2.565199,-2.011076 0,-0.977374 0.792317,-1.769691 1.769691,-1.769691 0.977374,0 1.769692,0.792317 1.769692,1.769691 z"
         sodipodi:nodetypes="sssss" />
      <path
         id="rect2690-1"
         style="fill:#c27770;stroke-width:0.202881;stroke-linejoin:round"
         d="m 68.898125,47.399053 a 0.33804961,0.33804961 0 0 1 0.319747,0.355409 v 0.493663 a 0.35540995,0.35540995 0 0 1 -0.355409,0.355411 0.33804961,0.33804961 0 0 1 -0.319749,-0.355411 v -0.493663 a 0.35540995,0.35540995 0 0 1 0.355411,-0.355409 z" />
      <ellipse
         style="fill:#2d2a45;fill-opacity:1;stroke:none;stroke-width:1.06497;stroke-linecap:round;stroke-linejoin:round;stroke-dasharray:none;stroke-opacity:1"
         id="path8498"
         cx="70.684242"
         cy="46.473862"
         rx="1.8870598"
         ry="1.2649907" />
      <ellipse
         style="fill:#df0fa1;fill-opacity:1;stroke:none;stroke-width:0.963689;stroke-linecap:round;stroke-linejoin:round;stroke-dasharray:none;stroke-opacity:1"
         id="ellipse8508"
         cx="71.889687"
         cy="52.816216"
         rx="1.0798609"
         ry="0.84141046" />
      <ellipse
         style="fill:#df0fa1;fill-opacity:1;stroke:none;stroke-width:0.963689;stroke-linecap:round;stroke-linejoin:round;stroke-dasharray:none;stroke-opacity:1"
         id="ellipse8510"
         cx="70.274612"
         cy="53.602295"
         rx="1.0798609"
         ry="0.84141046" />
      <ellipse
         style="fill:#f129c2;fill-opacity:1;stroke:none;stroke-width:0.963689;stroke-linecap:round;stroke-linejoin:round;stroke-dasharray:none;stroke-opacity:1"
         id="path8500"
         cx="71.89032"
         cy="52.686638"
         rx="1.0798609"
         ry="0.84141046" />
      <ellipse
         style="fill:#f129c2;fill-opacity:1;stroke:none;stroke-width:0.963689;stroke-linecap:round;stroke-linejoin:round;stroke-dasharray:none;stroke-opacity:1"
         id="ellipse8502"
         cx="70.209618"
         cy="53.488388"
         rx="1.0798609"
         ry="0.84141046" />
      <path
         style="fill:#b3b3b3;fill-opacity:1;stroke:none;stroke-width:0.165257px;stroke-linecap:butt;stroke-linejoin:miter;stroke-opacity:1"
         d="m 72.389168,57.44008 v 1.652577 l 1.431173,0.826287 v -1.652576 z"
         id="path9543" />
      <path
         style="fill:none;fill-opacity:1;stroke:#c27770;stroke-width:0.963689;stroke-linecap:round;stroke-linejoin:miter;stroke-dasharray:none;stroke-opacity:1"
         d="m 69.252649,53.702327 c 0,0 0.824407,2.223147 1.441865,3.174603 0.617457,0.951456 2.140321,1.968312 2.140321,1.968312 v 0 0"
         id="path4430-8"
         inkscape:transform-center-x="-1.8856535"
         inkscape:transform-center-y="2.9387722" />
      <path
         id="rect4143-7"
         style="fill:#f129c2;fill-opacity:1;stroke-width:1.36583;stroke-linecap:round;stroke-linejoin:round"
         d="m 68.930014,51.228814 a 0.98916692,0.99344698 11.261224 0 1 1.056274,0.919426 l 0.100763,1.255133 a 0.99923331,1.0035569 11.261224 0 1 -0.915889,1.082269 0.98916692,0.99344698 11.261224 0 1 -1.056275,-0.919426 l -0.100762,-1.255132 a 0.99923331,1.0035569 11.261224 0 1 0.915889,-1.08227 z"
         inkscape:transform-center-x="-0.042937591"
         inkscape:transform-center-y="1.2815111" />
      <path
         style="fill:#f15929;fill-opacity:1;stroke:none;stroke-width:0.165257px;stroke-linecap:butt;stroke-linejoin:miter;stroke-opacity:1"
         d="m 72.389168,57.44008 2.862347,-1.652576 1.431173,0.826288 -2.862347,1.652576 z"
         id="path9545" />
      <path
         style="fill:#666666;fill-opacity:1;stroke:none;stroke-width:0.165257px;stroke-linecap:butt;stroke-linejoin:miter;stroke-opacity:1"
         d="m 73.820341,58.266368 2.862347,-1.652576 v 1.652576 l -2.862347,1.652576 z"
         id="path9547" />
    </g>
    <g
       id="g10129">
      <path
         d="m 47.116675,102.53443 -0.763786,0.44097 0.881945,0.50919 -6.110291,3.52778 -0.881945,-0.50919 -0.763787,0.44097 -7.055556,-4.07352 0.763787,-0.44098 -0.881944,-0.50919 6.110291,-3.527771 0.881944,0.50919 0.763786,-0.44098 z m -3.93709,1.2547 -5.291667,-3.05515 -1.527572,0.88195 5.291667,3.05514 z"
         style="font-size:10.5833px;line-height:1.25;font-family:'8BIT WONDER';-inkscape-font-specification:'8BIT WONDER, Normal';fill:#f15929;fill-opacity:1;stroke-width:0.264583"
         id="path494" />
      <path
         style="fill:#999999;fill-opacity:1;stroke:none;stroke-width:0.264583px;stroke-linecap:butt;stroke-linejoin:miter;stroke-opacity:1"
         d="m 32.423255,102.87063 -0.03801,4.18408 -0.0837,-0.0484 0.0036,-5.08592 0.881946,0.5092 z"
         id="path4940"
         sodipodi:nodetypes="cccccc" />
      <path
         style="fill:#b3b3b3;fill-opacity:1;stroke:none;stroke-width:0.264583px;stroke-linecap:butt;stroke-linejoin:miter;stroke-opacity:1"
         d="m 32.423255,102.87063 3.605323,2.08153 -3.643333,2.10255 z"
         id="path5265" />
      <path
         style="fill:#b3b3b3;fill-opacity:1;stroke:none;stroke-width:0.264583px;stroke-linecap:butt;stroke-linejoin:miter;stroke-opacity:1"
         d="m 39.478811,106.94415 -0.0036,5.08592 -0.698815,-0.40346 -0.118517,-5.16198 z"
         id="path5612" />
      <path
         style="fill:#666666;fill-opacity:1;stroke:none;stroke-width:0.264583px;stroke-linecap:butt;stroke-linejoin:miter;stroke-opacity:1"
         d="m 39.478811,106.94415 0.763786,-0.44097 -0.0036,5.08592 -0.763788,0.44097 z"
         id="path5683" />
      <path
         style="fill:#999999;fill-opacity:1;stroke:none;stroke-width:0.264583px;stroke-linecap:butt;stroke-linejoin:miter;stroke-opacity:1"
         d="m 40.242597,106.50318 0.881946,0.50919 -0.0036,5.08592 L 40.239,111.5891 Z"
         id="path5685" />
      <path
         style="fill:#666666;fill-opacity:1;stroke:none;stroke-width:0.264583px;stroke-linecap:butt;stroke-linejoin:miter;stroke-opacity:1"
         d="m 41.124543,107.01237 6.110291,-3.52778 -0.0036,5.08592 -6.110333,3.52778 z"
         id="path5963" />
      <path
         style="fill:#666666;fill-opacity:1;stroke:none;stroke-width:0.264583px;stroke-linecap:butt;stroke-linejoin:miter;stroke-opacity:1"
         d="m 47.116676,102.53443 v 0.88194 L 46.35289,102.9754 Z"
         id="path5965" />
      <path
         style="fill:#666666;fill-opacity:1;stroke:none;stroke-width:0.264583px;stroke-linecap:butt;stroke-linejoin:miter;stroke-opacity:1"
         d="m 37.887919,100.73398 v 1.76389 l -1.527572,-0.88194 z"
         id="path6105" />
      <path
         style="fill:#b3b3b3;fill-opacity:1;stroke:none;stroke-width:0.264583px;stroke-linecap:butt;stroke-linejoin:miter;stroke-opacity:1"
         d="m 37.887919,100.73398 5.291667,3.05515 -1.527572,0.88194 -3.764095,-2.1732 z"
         id="path6245" />
    </g>
    <g
       id="g18589"
       transform="translate(-19.683419,1.1800136)">
      <path
         id="path16193"
         style="fill:#fde3db;fill-opacity:1;stroke-width:9.35651;stroke-linecap:round;stroke-linejoin:round"
         d="m 104.10704,109.18733 a 4.340339,2.5058959 2.63e-4 0 1 2e-5,3.54387 4.340339,2.5058959 2.63e-4 0 1 -6.138167,0 4.340339,2.5058959 2.63e-4 0 1 -1.7e-5,-3.54388 4.340339,2.5058959 2.63e-4 0 1 6.138164,1e-5 z" />
      <g
         id="g14741"
         transform="matrix(0.11075265,0,0,0.11075265,88.164904,86.997102)">
        <g
           id="g15953"
           transform="translate(35.958005,5.3272355)">
          <path
             id="path15508"
             style="fill:#e6e605;fill-opacity:1;stroke:none;stroke-width:2.38896px;stroke-linecap:butt;stroke-linejoin:miter;stroke-opacity:1"
             d="m 32.887903,109.58277 -82.75497,11.94478 82.75497,47.77915 z m -8.314691,8.67863 v 37.32746 l -51.721855,-29.86197 z" />
          <path
             id="path15513"
             style="fill:#ffff00;stroke:none;stroke-width:2.38896px;stroke-linecap:butt;stroke-linejoin:miter;stroke-opacity:1"
             d="m 31.557256,110.53066 -82.75497,11.94478 82.75497,47.77915 z m -8.314691,8.67863 v 37.32746 l -51.721856,-29.86197 z" />
          <path
             style="fill:#9e9e03;fill-opacity:1;stroke:none;stroke-width:2.38896px;stroke-linecap:butt;stroke-linejoin:miter;stroke-opacity:1"
             d="m 31.557252,110.53066 1.330649,-0.94789 v 59.72393 l -1.330649,0.94789 z"
             id="path15515" />
          <path
             style="fill:#e6e605;fill-opacity:1;stroke:none;stroke-width:2.38896px;stroke-linecap:butt;stroke-linejoin:miter;stroke-opacity:1"
             d="m -49.867057,121.52756 -1.330649,0.94789 2.37792,-0.34322 z"
             id="path15801" />
        </g>
        <path
           style="fill:none;stroke:#c27770;stroke-width:10.0542;stroke-linecap:round;stroke-linejoin:miter;stroke-dasharray:none;stroke-opacity:1"
           d="m 126.89859,39.874516 c 0,0 -28.967879,20.296689 -35.810679,22.952029 -6.84279,2.65534 -30.39983,3.9367 -30.39983,3.9367"
           id="path13823"
           inkscape:transform-center-x="32.083867"
           inkscape:transform-center-y="13.336624" />
        <ellipse
           style="fill:#2d2a45;fill-opacity:1;stroke:none;stroke-width:10.0542;stroke-linecap:round;stroke-linejoin:round;stroke-dasharray:none;stroke-opacity:1"
           id="path13612"
           cx="119.38672"
           cy="-42.501106"
           rx="12.18887"
           ry="7.3038116"
           transform="rotate(19.210463)" />
        <path
           style="fill:none;fill-opacity:1;stroke:#423b81;stroke-width:13.2292;stroke-linecap:round;stroke-linejoin:miter;stroke-dasharray:none;stroke-opacity:1"
           d="m 130.84407,112.81124 v 92.60416 0 0"
           id="path11572" />
        <path
           style="fill:none;fill-opacity:1;stroke:#423b81;stroke-width:13.2292;stroke-linecap:round;stroke-linejoin:miter;stroke-dasharray:none;stroke-opacity:1"
           d="m 107.93048,126.04041 v 92.60416 0 0"
           id="path11574" />
        <path
           id="path11576"
           style="fill:#413c81;fill-opacity:1;stroke-width:1.42822;stroke-linejoin:round"
           d="m 118.78063,111.6895 14.38799,-8.3069 a 11.747782,20.347756 29.999738 0 1 14.388,8.30701 v 5.14035 a 11.747782,20.347756 29.999738 0 1 -14.388,24.92083 l -14.38799,8.30691 a 11.747782,20.347756 29.999738 0 1 -14.388,-8.307 v -5.14035 a 11.747782,20.347756 29.999738 0 1 14.388,-24.92085 z" />
        <path
           id="path11578"
           style="fill:#413c81;fill-opacity:1;stroke-width:1.42822;stroke-linejoin:round"
           d="m 107.13497,106.59533 14.38799,-8.306915 a 11.747782,20.347756 29.999738 0 1 14.388,8.307015 v 5.14035 a 11.747782,20.347756 29.999738 0 1 -14.388,24.92084 l -14.38799,8.3069 a 11.747782,20.347756 29.999738 0 1 -14.387999,-8.30699 v -5.14036 a 11.747782,20.347756 29.999738 0 1 14.387999,-24.92084 z" />
        <path
           style="fill:#999999;fill-opacity:1;stroke:none;stroke-width:0.19184px;stroke-linecap:butt;stroke-linejoin:miter;stroke-opacity:1"
           d="m 131.32366,97.080455 11.33875,4.951035 -7.31488,0.28474 z"
           id="path11580" />
        <path
           style="fill:#413c81;fill-opacity:1;stroke:none;stroke-width:0.19184px;stroke-linecap:butt;stroke-linejoin:miter;stroke-opacity:1"
           d="m 96.693861,145.80866 12.579789,5.59438 -4.31734,-5.37301 z"
           id="path11582"
           sodipodi:nodetypes="cccc" />
        <path
           id="path11584"
           style="fill:#29f1e1;fill-opacity:1;stroke-width:1.45927;stroke-linejoin:round"
           d="m 124.02103,44.509899 9.55765,-5.51812 a 7.299232,7.299232 27.498395 0 1 10.92104,5.684744 l 5.35204,61.134727 a 17.982454,17.982454 117.49841 0 1 -8.92272,17.14154 l -24.25837,14.00556 a 6.0218571,6.0218571 32.272953 0 1 -9.01384,-5.69235 l 5.53428,-69.606946 a 21.796972,21.796972 122.27294 0 1 10.82992,-17.149155 z"
           sodipodi:nodetypes="ccccc"
           inkscape:path-effect="#path-effect11622"
           inkscape:original-d="m 114.09915,50.238299 29.40141,-16.97492 7.35036,83.961011 -44.10213,25.46236 z" />
        <path
           id="path11586"
           style="fill:#29f1e1;fill-opacity:1;stroke-width:1.45927;stroke-linejoin:round"
           d="m 106.81457,42.317679 9.55765,-5.51812 a 7.2992319,7.2992319 27.498394 0 1 10.92104,5.684744 l 5.35204,61.134717 a 17.982457,17.982457 117.4984 0 1 -8.92272,17.14154 l -24.258372,14.00557 a 6.0218558,6.0218558 32.272948 0 1 -9.01384,-5.69235 L 95.984654,59.466834 A 21.796973,21.796973 122.27294 0 1 106.81457,42.317679 Z"
           sodipodi:nodetypes="ccccc"
           inkscape:path-effect="#path-effect11626"
           inkscape:original-d="m 96.892691,48.046079 29.401409,-16.97492 7.35036,83.961001 -44.102129,25.46237 z" />
        <path
           style="fill:#f15929;fill-opacity:1;stroke:none;stroke-width:0.264583px;stroke-linecap:butt;stroke-linejoin:miter;stroke-opacity:1"
           d="m 120.94448,35.880189 17.1415,2.18424 -10.78136,4.54968 z"
           id="path11588"
           sodipodi:nodetypes="cccc" />
        <path
           style="fill:#29f1e1;fill-opacity:1;stroke:none;stroke-width:0.264583px;stroke-linecap:butt;stroke-linejoin:miter;stroke-opacity:1"
           d="m 95.073761,135.41276 17.814009,2.30268 -5.12845,-7.73849 z"
           id="path11590" />
        <path
           id="path11596"
           style="fill:#29f1e1;fill-opacity:1;stroke-width:15.6719;stroke-linecap:round;stroke-linejoin:round"
           d="m 143.68297,39.249329 a 11.374487,11.374487 0 0 1 -7.05481,14.456376 l -13.58818,4.83145 a 11.490241,11.490241 0 0 1 -14.67564,-6.97686 11.374487,11.374487 0 0 1 7.0548,-14.456392 l 13.58817,-4.831435 a 11.490241,11.490241 0 0 1 14.67566,6.976868 z"
           inkscape:transform-center-x="13.201102"
           inkscape:transform-center-y="3.7111871" />
        <path
           id="path11600"
           style="fill:#a55959;fill-opacity:1;stroke-width:2.11667;stroke-linejoin:round"
           d="m 120.8764,22.704223 a 5.0691631,5.0691631 0 0 1 4.91613,5.2177 v 13.674 a 5.2177048,5.2177048 0 0 1 -5.2177,5.21771 5.0691631,5.0691631 0 0 1 -4.91614,-5.21771 v -13.674 a 5.2177048,5.2177048 0 0 1 5.21771,-5.2177 z" />
        <path
           id="path13293"
           style="fill:#c27770;stroke-width:8.94943;stroke-linecap:round;stroke-linejoin:round"
           d="m 136.93746,13.420752 c 0,10.837574 -16.52551,24.008139 -27.36308,24.008139 -10.837559,0 -11.883229,-13.170565 -11.883229,-24.008139 0,-10.83757 8.785589,-19.623156 19.623159,-19.623156 10.83757,0 19.62315,8.785586 19.62315,19.623156 z"
           sodipodi:nodetypes="sssss" />
        <path
           id="path13296"
           style="fill:#2d2a45;stroke-width:7.59404;stroke-linecap:round;stroke-linejoin:round"
           d="m 138.72593,7.496324 c 0,12.354032 -7.5643,22.447075 -17.12212,22.447074 -9.55782,1e-6 -17.30597,-10.01492 -17.30597,-22.368952 0,-12.354031 7.89186,-10.086297 17.44968,-10.086298 4.77891,-10e-7 9.26602,-4.954047 12.07339,0.371326 1.49076,2.827852 4.90502,3.459834 4.90502,9.63685 z"
           sodipodi:nodetypes="ssssss" />
        <path
           id="path11612"
           style="fill:#c27770;stroke-width:2.11667;stroke-linejoin:round"
           d="m 110.44034,12.531643 a 3.5268847,3.5268847 0 0 1 3.33594,3.708 v 5.15041 a 3.7080058,3.7080058 0 0 1 -3.708,3.70801 3.5268847,3.5268847 0 0 1 -3.33595,-3.70801 v -5.15041 a 3.7080058,3.7080058 0 0 1 3.70801,-3.708 z" />
        <path
           style="fill:none;stroke:#c27770;stroke-width:10.0542;stroke-linecap:round;stroke-linejoin:miter;stroke-dasharray:none;stroke-opacity:1"
           d="m 100.97213,66.984715 c 0,0 -10.824539,33.673765 -14.673719,39.923445 -3.84918,6.24969 -21.84837,21.50107 -21.84837,21.50107"
           id="path13614" />
        <path
           id="path11616"
           style="fill:#29f1e1;fill-opacity:1;stroke-width:15.6719;stroke-linecap:round;stroke-linejoin:round"
           d="m 107.95745,48.728114 a 11.374487,11.374487 0 0 1 6.78268,14.586061 l -4.80804,13.59646 a 11.490241,11.490241 0 0 1 -14.663629,7.00207 11.374487,11.374487 0 0 1 -6.7827,-14.58604 l 4.80806,-13.59646 a 11.490241,11.490241 0 0 1 14.663629,-7.002091 z" />
      </g>
      <g
         id="g18550"
         transform="translate(3.2393495,-0.47001405)">
        <path
           style="fill:none;fill-opacity:1;stroke:#666666;stroke-width:0.105833;stroke-linecap:butt;stroke-linejoin:miter;stroke-dasharray:none;stroke-opacity:1"
           d="m 91.390114,96.900198 v 2.668918 h -0.01384 0.0073"
           id="path17974" />
        <path
           style="color:#000000;fill:#666666;stroke-linecap:round"
           d="m 90.4652,94.795441 -1.259586,3.201447 a 0.14516553,0.14516553 66.603273 0 0 0.08134,0.187999 l 0.001,4.06e-4 a 0.14396226,0.14396226 156.61779 0 0 0.187239,-0.08096 l 1.26147,-3.201474 z"
           id="path17966"
           inkscape:path-effect="#path-effect17972"
           inkscape:original-d="m 90.4652,94.795441 -1.3125,3.335938 0.269532,0.107422 1.314453,-3.335938 z" />
        <g
           id="g17645">
          <path
             style="fill:#e6e605;fill-opacity:1;stroke:none;stroke-width:0.264583px;stroke-linecap:butt;stroke-linejoin:miter;stroke-opacity:1"
             d="m 91.837957,92.843939 v 6.266009 l -0.58633,-0.313374 0.0101,-6.301604 a 0.19668309,0.19668309 150.65793 0 1 0.298641,-0.167877 0.59776611,0.59776611 61.760597 0 1 0.277588,0.516846 z"
             id="path17136"
             sodipodi:nodetypes="ccccc"
             inkscape:path-effect="#path-effect17140"
             inkscape:original-d="m 91.837957,92.495365 v 6.614583 l -0.58633,-0.313374 0.01066,-6.650177 z" />
          <path
             style="fill:#e6e605;fill-opacity:1;stroke:none;stroke-width:0.264583px;stroke-linecap:butt;stroke-linejoin:miter;stroke-opacity:1"
             d="m 91.168982,92.438304 0.189071,-0.112172 -0.07568,0.08142 z"
             id="path17639" />
          <path
             style="fill:#ffff00;stroke:none;stroke-width:0.264583px;stroke-linecap:butt;stroke-linejoin:miter;stroke-opacity:1"
             d="m 91.654357,92.952743 0,6.266009 -0.58633,-0.313374 0.0101,-6.301604 a 0.19668309,0.19668309 150.65793 0 1 0.298641,-0.167877 0.59776611,0.59776611 61.760597 0 1 0.277588,0.516846 z"
             id="path17128"
             sodipodi:nodetypes="ccccc"
             inkscape:path-effect="#path-effect17134"
             inkscape:original-d="m 91.654357,92.604169 v 6.614583 l -0.58633,-0.313374 0.01066,-6.650177 z" />
          <path
             style="fill:#9e9e03;fill-opacity:1;stroke:none;stroke-width:0.264583px;stroke-linecap:butt;stroke-linejoin:miter;stroke-opacity:1"
             d="m 91.654357,99.218752 0.1836,-0.108804 V 92.84394 l -0.1836,0.108802 z"
             id="path17211" />
        </g>
        <path
           style="color:#000000;fill:#ffff00;stroke-width:0.930607"
           d="m 91.010411,92.595455 -1.857412,4.715031 0.602158,0.60547 1.855842,-4.71596 a 0.55749671,0.55749671 78.336122 0 0 -0.123249,-0.59704 l -0.08735,-0.08794 a 0.23781666,0.23781666 168.34631 0 0 -0.38999,0.08043 z"
           id="path17755"
           inkscape:path-effect="#path-effect17763"
           inkscape:original-d="m 91.143842,92.256742 -1.990843,5.053744 0.602158,0.60547 1.989152,-5.054721 z" />
        <path
           style="fill:#9e9e03;fill-opacity:1;stroke:none;stroke-width:0.264583px;stroke-linecap:butt;stroke-linejoin:miter;stroke-opacity:1"
           d="m 89.755157,97.915955 0.210312,-0.111393 1.102558,-2.806377 v -0.41783 z"
           id="path17771" />
        <path
           id="path17963"
           style="fill:#666666;fill-opacity:1;stroke-width:0.415884;stroke-linecap:round;stroke-linejoin:round"
           d="m 91.44661,92.883499 a 0.15542139,0.08973258 60.000263 0 1 -0.109899,0.06345 0.15542139,0.08973258 60.000263 0 1 -0.109899,-0.190352 0.15542139,0.08973258 60.000263 0 1 0.109899,-0.06345 0.15542139,0.08973258 60.000263 0 1 0.109899,0.190352 z" />
      </g>
    </g>
    <path
       style="fill:#0a3097;fill-opacity:1;stroke:#0a3097;stroke-width:1.24339;stroke-linecap:round;stroke-linejoin:miter;stroke-dasharray:none;stroke-opacity:1"
       d="m 121.12888,59.711608 v 7.253145 0 0"
       id="path21715" />
    <path
       style="fill:#0a3097;fill-opacity:1;stroke:#0a3097;stroke-width:1.24339;stroke-linecap:round;stroke-linejoin:miter;stroke-dasharray:none;stroke-opacity:1"
       d="m 118.61045,58.511772 v 7.25314 0 0"
       id="path21717" />
    <g
       id="g21713"
       transform="matrix(0.07832415,0,0,0.07832415,105.82904,35.887553)"
       style="fill:#0a3097;fill-opacity:1">
      <path
         style="fill:#0a3097;fill-opacity:1;stroke:#000000;stroke-width:0.264583px;stroke-linecap:butt;stroke-linejoin:miter;stroke-opacity:0"
         d="m 159.97047,293.38427 28.76756,16.2691 a 9.6545414,9.6545414 149.63149 0 0 14.40708,-8.44195 l -0.0772,-19.50883 a 28.905748,28.905748 59.86506 0 0 -14.47149,-24.92958 l -28.80546,-16.60195 a 9.5846213,9.5846213 149.91812 0 0 -14.37067,8.32431 l 0.0423,20.07696 a 28.574059,28.574059 59.684542 0 0 14.5079,24.81194 z"
         id="path21354" />
      <path
         style="fill:#0a3097;fill-opacity:1;stroke:#000000;stroke-width:0.264583px;stroke-linecap:butt;stroke-linejoin:miter;stroke-opacity:0"
         d="m 172.3909,286.07916 28.76756,16.2691 a 9.6545414,9.6545414 0 0 0 14.40708,-8.44195 l -0.0772,-19.50883 A 28.905748,28.905748 0 0 0 201.01685,249.4679 l -28.80546,-16.60195 a 9.5846213,9.5846213 0 0 0 -14.37067,8.32431 l 0.0423,20.07696 a 28.574059,28.574059 0 0 0 14.5079,24.81194 z"
         id="path21565" />
      <path
         style="fill:#0a3097;fill-opacity:1;stroke:none;stroke-width:0.264583px;stroke-linecap:butt;stroke-linejoin:miter;stroke-opacity:1"
         d="m 197.56172,310.00385 13.21954,-7.72319 -7.82221,0.85561 z"
         id="path21567" />
      <path
         style="fill:#0a3097;fill-opacity:1;stroke:none;stroke-width:0.264583px;stroke-linecap:butt;stroke-linejoin:miter;stroke-opacity:1"
         d="m 150.44563,240.0444 12.11697,-7.1338 -4.55173,6.46354 z"
         id="path21638" />
    </g>
    <circle
       style="fill:#2d2a45;fill-opacity:1;stroke:none;stroke-width:0.876591;stroke-linecap:round;stroke-linejoin:round;stroke-dasharray:none;stroke-opacity:1"
       id="path21208"
       cx="120.55499"
       cy="46.948074"
       r="2.678345" />
    <path
       style="fill:#0c7515;fill-opacity:1;stroke:none;stroke-width:0.0183072px;stroke-linecap:butt;stroke-linejoin:miter;stroke-opacity:1"
       d="m 121.42278,58.312326 -0.43167,-5.233093 a 2.3321006,2.3321006 57.297988 0 0 -1.18251,-1.841805 l -1.30858,-0.734689 a 0.80595972,0.80595972 152.34901 0 0 -1.19697,0.627115 l -0.41842,4.437656 a 1.9308994,1.9308994 62.693256 0 0 0.95692,1.853468 l 2.60985,1.5068 a 0.64905007,0.64905007 147.64224 0 0 0.97138,-0.615452 z"
       id="path19866"
       sodipodi:nodetypes="ccccc"
       inkscape:path-effect="#path-effect23692"
       inkscape:original-d="m 121.52466,59.547425 -0.63543,-7.703291 -3.46984,-1.948101 -0.6511,6.905298 z" />
    <path
       style="fill:#0c7515;fill-opacity:1;stroke:none;stroke-width:0.0183072px;stroke-linecap:butt;stroke-linejoin:miter;stroke-opacity:1"
       d="m 123.16172,57.530699 -0.4395,-5.327862 a 2.242639,2.242639 57.297987 0 0 -1.13714,-1.771146 l -1.39149,-0.781239 a 0.77504015,0.77504015 152.34908 0 0 -1.15105,0.603056 l -0.42735,4.532324 a 1.8568182,1.8568182 62.693275 0 0 0.92021,1.782361 l 2.6922,1.554347 a 0.62414959,0.62414959 147.64218 0 0 0.93412,-0.591841 z"
       id="path19898"
       sodipodi:nodetypes="ccccc"
       inkscape:path-effect="#path-effect23694"
       inkscape:original-d="m 123.25969,58.718414 -0.63544,-7.703292 -3.46983,-1.948101 -0.65111,6.905298 z" />
    <path
       style="fill:#0c7515;fill-opacity:1;stroke:none;stroke-width:0.0207232px;stroke-linecap:butt;stroke-linejoin:miter;stroke-opacity:1"
       d="m 117.82402,50.44595 1.66557,-0.799602 -0.49664,1.133145 z"
       id="path19904" />
    <path
       style="fill:#0c7515;fill-opacity:1;stroke:none;stroke-width:0.0207232px;stroke-linecap:butt;stroke-linejoin:miter;stroke-opacity:1"
       d="m 121.10858,59.029705 1.72814,-0.799211 -1.47063,-0.605345 z"
       id="path20044"
       sodipodi:nodetypes="cccc" />
    <ellipse
       style="fill:#c27770;fill-opacity:1;stroke:none;stroke-width:0.787486;stroke-linecap:round;stroke-linejoin:round;stroke-dasharray:none;stroke-opacity:1"
       id="path20195"
       cx="120.16151"
       cy="50.462791"
       rx="0.90925223"
       ry="0.46604171" />
    <path
       id="path20141"
       style="fill:#a55959;fill-opacity:1;stroke-width:0.182849;stroke-linejoin:round"
       d="m 120.11153,48.497386 a 0.4379006,0.4379006 0 0 1 0.42467,0.450732 v 1.181229 a 0.4507324,0.4507324 0 0 1 -0.45072,0.450733 0.4379006,0.4379006 0 0 1 -0.42468,-0.450733 v -1.181229 a 0.4507324,0.4507324 0 0 1 0.45073,-0.450732 z" />
    <path
       style="fill:none;stroke:#c27770;stroke-width:0.787486;stroke-linecap:round;stroke-linejoin:round;stroke-dasharray:none;stroke-opacity:1"
       d="m 120.43022,53.7338 c 0,0 -0.25019,1.303622 -1.18731,2.724355 -0.93714,1.420734 -2.80017,2.992674 -2.80017,2.992674 l 0.0161,-0.07143 v 0 0"
       id="path20266" />
    <path
       style="fill:none;stroke:#c27770;stroke-width:0.876591;stroke-linecap:round;stroke-linejoin:round;stroke-dasharray:none;stroke-opacity:1"
       d="m 117.55286,51.788668 c 0,0 -0.25018,1.303617 -1.18731,2.72435 -0.93713,1.420734 -2.80017,2.99268 -2.80017,2.99268 l 0.0161,-0.07143 v 0 0"
       id="path20909" />
    <path
       id="rect20115"
       style="fill:#0c7515;fill-opacity:1;stroke-width:0.787486;stroke-linecap:round;stroke-linejoin:round"
       d="m 118.4002,50.532238 0.006,0.0031 a 0.92975668,0.92975668 0 0 1 0.44149,1.238546 l -0.64309,1.355503 a 0.92975668,0.92975668 0 0 1 -1.23855,0.44148 l -0.006,-0.0031 a 0.92975668,0.92975668 0 0 1 -0.44149,-1.23854 l 0.64309,-1.355503 a 0.92975668,0.92975668 0 0 1 1.23856,-0.441485 z"
       inkscape:transform-center-x="0.41886251"
       inkscape:transform-center-y="1.0259006" />
    <path
       id="path21084"
       style="fill:#c27770;stroke:#c27770;stroke-width:0.876591;stroke-linecap:round;stroke-linejoin:round"
       d="m 121.77685,47.703288 c 0,0.930068 -1.54752,2.019763 -2.47759,2.019763 -0.93007,0 -0.89048,-1.089695 -0.89048,-2.019763 0,-0.930062 0.75397,-1.684032 1.68404,-1.684032 0.93006,0 1.68403,0.75397 1.68403,1.684032 z"
       sodipodi:nodetypes="sssss" />
    <ellipse
       style="fill:#2d2a45;fill-opacity:1;stroke:none;stroke-width:0.876591;stroke-linecap:round;stroke-linejoin:round;stroke-dasharray:none;stroke-opacity:1"
       id="path21212"
       cx="112.2304"
       cy="61.844707"
       rx="2.5352178"
       ry="1.4519098"
       transform="rotate(-7.9549842)" />
    <ellipse
       style="fill:#2d2a45;fill-opacity:1;stroke:none;stroke-width:0.650573;stroke-linecap:round;stroke-linejoin:round;stroke-dasharray:none;stroke-opacity:1"
       id="ellipse21214"
       cx="65.553421"
       cy="-118.19203"
       rx="2.2298384"
       ry="0.90922993"
       transform="matrix(0.07874089,0.99689512,-0.98763288,0.15678426,0,0)" />
    <path
       id="path21210"
       style="fill:#c27770;stroke-width:0.257906;stroke-linejoin:round"
       d="m 121.49604,47.018139 a 0.32652802,0.56556314 29.999736 0 1 0.37825,0.267106 v 0.674351 a 0.34329668,0.59460728 29.999736 0 1 -0.42045,0.728244 0.32652802,0.56556314 29.999736 0 1 -0.37826,-0.267105 v -0.674356 a 0.34329668,0.59460728 29.999736 0 1 0.42046,-0.72824 z" />
    <g
       id="g24105"
       transform="translate(-9.1654331,-14.552084)">
      <path
         style="fill:#666666;fill-opacity:1;stroke:none;stroke-width:0.264583px;stroke-linecap:butt;stroke-linejoin:miter;stroke-opacity:1"
         d="m 126.02474,72.760418 -2.29136,1.322917 v 1.322917 l 2.29136,-1.322917 z"
         id="path24027" />
      <path
         style="fill:#b3b3b3;fill-opacity:1;stroke:none;stroke-width:0.264583px;stroke-linecap:butt;stroke-linejoin:miter;stroke-opacity:1"
         d="m 123.73338,74.083335 -3.43703,-1.984375 v 1.322917 l 3.43703,1.984375 z"
         id="path24029" />
      <path
         style="fill:#f15929;fill-opacity:1;stroke:none;stroke-width:0.264583px;stroke-linecap:butt;stroke-linejoin:miter;stroke-opacity:1"
         d="m 120.29635,72.09896 2.29135,-1.322917 3.43704,1.984375 -2.29136,1.322917 z"
         id="path24100" />
    </g>
    <path
       style="fill:none;stroke:#c27770;stroke-width:0.876591;stroke-linecap:round;stroke-linejoin:round;stroke-dasharray:none;stroke-opacity:1"
       d="m 120.43022,53.7338 c 0,0 -0.25019,1.303622 -1.18731,2.724355 -0.93714,1.420734 -2.80017,2.992674 -2.80017,2.992674 l 0.0161,-0.07143 v 0 0"
       id="path20907" />
    <path
       id="path20120"
       style="fill:#0c7515;fill-opacity:1;stroke-width:0.787486;stroke-linecap:round;stroke-linejoin:round"
       d="m 121.12603,51.607519 0.006,0.0026 a 0.92975668,0.92975668 0 0 1 0.52957,1.20351 l -0.54375,1.398315 a 0.92975668,0.92975668 0 0 1 -1.20352,0.529577 l -0.006,-0.0026 a 0.92975668,0.92975668 0 0 1 -0.52958,-1.203516 l 0.54376,-1.398315 a 0.92975668,0.92975668 0 0 1 1.20351,-0.529576 z"
       inkscape:transform-center-x="0.4387848"
       inkscape:transform-center-y="0.97581584"
       inkscape:export-filename="final/coopmaths_coop.svg"
       inkscape:export-xdpi="96"
       inkscape:export-ydpi="96" />
  </g>
  <metadata
     id="metadata14583">
    <rdf:RDF>
      <cc:Work
         rdf:about="">
        <cc:license
           rdf:resource="http://creativecommons.org/licenses/by-nc-sa/4.0/" />
        <dc:creator>
          <cc:Agent>
            <dc:title>sylvain</dc:title>
          </cc:Agent>
        </dc:creator>
      </cc:Work>
      <cc:License
         rdf:about="http://creativecommons.org/licenses/by-nc-sa/4.0/">
        <cc:permits
           rdf:resource="http://creativecommons.org/ns#Reproduction" />
        <cc:permits
           rdf:resource="http://creativecommons.org/ns#Distribution" />
        <cc:requires
           rdf:resource="http://creativecommons.org/ns#Notice" />
        <cc:requires
           rdf:resource="http://creativecommons.org/ns#Attribution" />
        <cc:prohibits
           rdf:resource="http://creativecommons.org/ns#CommercialUse" />
        <cc:permits
           rdf:resource="http://creativecommons.org/ns#DerivativeWorks" />
        <cc:requires
           rdf:resource="http://creativecommons.org/ns#ShareAlike" />
      </cc:License>
    </rdf:RDF>
  </metadata>
</svg>
