<?xml version="1.0" encoding="UTF-8" standalone="no"?>
<!-- Created with Inkscape (http://www.inkscape.org/) -->

<svg
   width="270"
   height="38"
   viewBox="0 0 71.437498 10.054167"
   version="1.1"
   id="svg10256"
   xmlns="http://www.w3.org/2000/svg"
   xmlns:svg="http://www.w3.org/2000/svg">
  <defs
     id="defs10253" />
  <g
     id="layer1">
    <path
       d="m 3.1750568,5.0958783 c 0,2.53999 1.3335,4.10632 3.91582,4.10632 1.40758,0 3.2279102,-0.61383 3.2279102,-1.92616 0,-0.55033 -0.4445,-0.99483 -0.9842502,-0.99483 -1.03716,0 -0.83608,1.32291 -2.24366,1.32291 -0.96308,0 -1.77799,-0.75142 -1.77799,-2.60349 0,-1.78858 0.77258,-2.53999 1.77799,-2.53999 1.34408,0 1.17475,1.18532 2.14841,1.18532 0.52917,0 0.9630802,-0.42333 0.9630802,-0.96308 0,-1.26999 -1.7991602,-1.82031994 -3.1114902,-1.82031994 -2.40241,0 -3.91582,1.72506994 -3.91582,4.23331994 z"
       id="path8965"
       style="font-weight:bold;font-size:10.5833px;line-height:1.25;font-family:Jellee;-inkscape-font-specification:'Jellee, Bold';text-align:end;text-anchor:end;fill:#216d9a;fill-opacity:1;stroke-width:0.264583" />
    <path
       id="path8967"
       d="m 14.578268,0.86255836 c -2.45532,0 -3.93722,1.66177994 -3.93722,4.15942994 0,2.51883 1.45013,4.16977 3.91604,4.16977 1.1953,0 2.15978,-0.39144 2.83497,-1.08365 0.66881,0.69207 1.62791,1.08365 2.82825,1.08365 2.45532,0 3.93722,-1.65094 3.93722,-4.16977 0,-2.50824 -1.45013,-4.15942994 -3.91604,-4.15942994 -1.19396,0 -2.1573,0.39327994 -2.83238,1.08416994 -0.6689,-0.69219 -1.62926,-1.08416994 -2.83084,-1.08416994 z m -0.0109,1.60867994 c 0.90691,0 1.61954,0.5911 1.76217,2.00505 -0.0163,0.17696 -0.0248,0.35906 -0.0248,0.5457 0,0.1883 0.008,0.37157 0.0243,0.54984 -0.14361,1.41278 -0.85563,2.01125 -1.76165,2.01125 -1.016,0 -1.78852,-0.75134 -1.78852,-2.56109 0,-1.80974 0.77252,-2.55075 1.78852,-2.55075 z m 5.66374,0 c 1.01599,0 1.78852,0.74101 1.78852,2.55075 0,1.80975 -0.77253,2.56109 -1.78852,2.56109 -0.90648,0 -1.61905,-0.59903 -1.76217,-2.01332 0.0162,-0.17763 0.0248,-0.36018 0.0248,-0.54777 0,-0.18797 -0.008,-0.37131 -0.0243,-0.54932 0.14349,-1.41132 0.85551,-2.00143 1.76165,-2.00143 z"
       style="font-weight:bold;font-size:10.5833px;line-height:1.25;font-family:Jellee;-inkscape-font-specification:'Jellee, Bold';text-align:end;text-anchor:end;fill:#f1440e;stroke-width:0.264583" />
    <path
       d="m 24.479789,8.0909483 c 0,0.56092 0.45508,1.016 1.01599,1.016 0.56092,0 1.016,-0.45508 1.016,-1.016 v -1.51341 h 1.22766 c 1.89441,0 3.12208,-1.06891 3.12208,-2.78341 0,-1.76741 -1.28058,-2.76224 -3.11149,-2.76224 h -2.37066 c -0.58208,0 -0.89958,0.3175 -0.89958,0.89958 z m 2.03199,-3.06916 v -2.43416 h 0.9525 c 0.81491,0 1.39699,0.35984 1.39699,1.23825 0,0.87841 -0.59266,1.19591 -1.40758,1.19591 z"
       id="path8971"
       style="font-weight:bold;font-size:10.5833px;line-height:1.25;font-family:Jellee;-inkscape-font-specification:'Jellee, Bold';text-align:end;text-anchor:end;fill:#216d9a;fill-opacity:1;stroke-width:0.264583" />
    <path
       d="m 31.18378,8.1650283 c 0,0.51859 0.42333,0.94192 0.95249,0.94192 0.51859,0 0.94192,-0.42333 0.94192,-0.94192 v -4.54023 h 0.0635 c 0.0212,0.13758 0.0529,0.28575 0.0847,0.43391 0.0529,0.254 0.14816,0.60325 0.26458,0.94192 l 1.19591,3.39724 c 0.13759,0.40216 0.52917,0.70908 0.99483,0.70908 0.45509,0 0.85725,-0.30692 0.99483,-0.70908 l 1.18533,-3.39724 c 0.11642,-0.33867 0.21167,-0.67733 0.26458,-0.94192 l 0.0847,-0.43391 h 0.0635 v 4.4979 c 0,0.53975 0.44449,0.98425 0.98424,0.98425 0.55033,0 0.99483,-0.4445 0.99483,-0.98425 v -5.67265 c 0,-0.8255 -0.67733,-1.50282994 -1.50283,-1.50282994 -0.65616,0 -1.22766,0.42333994 -1.42874,1.00541994 l -1.25942,3.6089 c -0.10583,0.29633 -0.15874,0.52917 -0.20108,0.70908 l -0.0529,0.29634 h -0.0635 l -0.0529,-0.29634 c -0.0317,-0.17991 -0.0952,-0.42333 -0.1905,-0.70908 l -1.25941,-3.56657 c -0.21167,-0.61383 -0.79375,-1.04774994 -1.48166,-1.04774994 -0.86783,0 -1.57691,0.70907994 -1.57691,1.57691994 z"
       id="path8973"
       style="font-weight:bold;font-size:10.5833px;line-height:1.25;font-family:Jellee;-inkscape-font-specification:'Jellee, Bold';text-align:end;text-anchor:end;fill:#216d9a;fill-opacity:1;stroke-width:0.264583" />
    <path
       d="m 40.57598,8.1861983 c 0,0.508 0.41275,0.92075 0.92075,0.92075 0.42333,0 0.77258,-0.26458 0.889,-0.64558 l 0.34925,-1.13242 h 2.87865 l 0.34925,1.11125 c 0.127,0.381 0.48683,0.66675 0.92075,0.66675 0.52916,0 0.96308,-0.43392 0.96308,-0.96308 0,-0.10584 -0.0212,-0.21167 -0.0529,-0.3175 l -1.98966,-5.75732 c -0.22225,-0.65616 -0.84667,-1.12182994 -1.57691,-1.12182994 -0.74083,0 -1.36525,0.46566994 -1.5875,1.12182994 l -2.01083,5.82082 c -0.0318,0.0952 -0.0529,0.1905 -0.0529,0.29633 z m 2.65641,-2.42358 0.508,-1.61924 c 0.15875,-0.508 0.254,-0.87841 0.37041,-1.34408 h 0.127 c 0.10584,0.46567 0.20109,0.83608 0.37042,1.34408 l 0.508,1.61924 z"
       id="path8975"
       style="font-weight:bold;font-size:10.5833px;line-height:1.25;font-family:Jellee;-inkscape-font-specification:'Jellee, Bold';text-align:end;text-anchor:end;fill:#216d9a;fill-opacity:1;stroke-width:0.264583" />
    <path
       d="m 48.168971,1.8362183 c 0,0.4445 0.35983,0.80433 0.80433,0.80433 h 1.52399 v 5.4504 c 0,0.56092 0.45508,1.016 1.016,1.016 0.56091,0 1.016,-0.45508 1.016,-1.016 v -5.4504 h 1.52399 c 0.4445,0 0.80433,-0.35983 0.80433,-0.80433 0,-0.4445 -0.35983,-0.80433 -0.80433,-0.80433 h -5.07998 c -0.4445,0 -0.80433,0.35983 -0.80433,0.80433 z"
       id="path8977"
       style="font-weight:bold;font-size:10.5833px;line-height:1.25;font-family:Jellee;-inkscape-font-specification:'Jellee, Bold';text-align:end;text-anchor:end;fill:#216d9a;fill-opacity:1;stroke-width:0.264583" />
    <path
       d="m 55.179872,8.0909483 c 0,0.56092 0.45508,1.016 1.01599,1.016 0.56092,0 1.016,-0.45508 1.016,-1.016 v -2.32833 h 2.92099 v 2.32833 c 0,0.56092 0.45508,1.016 1.016,1.016 0.56091,0 1.01599,-0.45508 1.01599,-1.016 v -6.12773 c 0,-0.56091 -0.45508,-1.01599994 -1.01599,-1.01599994 -0.56092,0 -1.016,0.45508994 -1.016,1.01599994 v 2.14841 h -2.92099 v -2.14841 c 0,-0.56091 -0.45508,-1.01599994 -1.016,-1.01599994 -0.56091,0 -1.01599,0.45508994 -1.01599,1.01599994 z"
       id="path8979"
       style="font-weight:bold;font-size:10.5833px;line-height:1.25;font-family:Jellee;-inkscape-font-specification:'Jellee, Bold';text-align:end;text-anchor:end;fill:#216d9a;fill-opacity:1;stroke-width:0.264583" />
    <path
       d="m 62.582353,3.2967183 c 0,1.31233 0.73025,2.05316 2.21191,2.37066 l 1.30175,0.27516 c 0.76199,0.15875 0.96308,0.41275 0.96308,0.78317 0,0.50799 -0.45508,0.76199 -1.30175,0.76199 -1.26999,0 -1.41816,-0.84666 -2.30716,-0.84666 -0.52916,0 -0.96308,0.34925 -0.96308,0.87841 0,1.23825 1.75683,1.68275 3.35491,1.68275 2.48707,0 3.34432,-1.25942 3.34432,-2.61408 0,-1.19591 -0.64558,-2.02141 -2.26483,-2.37066 l -1.29116,-0.27516 c -0.80433,-0.16934 -1.00541,-0.45508 -1.00541,-0.84667 0,-0.37041 0.40216,-0.68791 1.09008,-0.68791 1.22766,0 1.22766,0.96308 2.12724,0.96308 0.508,0 0.92075,-0.37042 0.92075,-0.87841 0,-1.143 -1.80974,-1.65099994 -2.99507,-1.65099994 -2.032,0 -3.18558,1.06890994 -3.18558,2.45532994 z"
       id="path8981"
       style="font-weight:bold;font-size:10.5833px;line-height:1.25;font-family:Jellee;-inkscape-font-specification:'Jellee, Bold';text-align:end;text-anchor:end;fill:#216d9a;fill-opacity:1;stroke-width:0.264583" />
  </g>
</svg>
